1498592960,2.5352867122031286,1.8907560523351263
1498592961,2.5087330078846106,1.8905516660784514
1498592961,2.478192913667577,1.8916791483355688
1498592962,2.4511614798837797,1.8881470865235577
1498592962,2.4340942655211073,1.885144061298951
1498592963,2.4255614289074683,1.8836426842702398
1498592963,2.452562588854759,1.7429199391111232
1498592964,2.504759781188708,1.7823024545980342
1498592964,2.742215527932912,1.906655593922102
1498592965,2.739155429705007,1.9524730486342365
1498592966,2.6614730682422882,2.0531973750358836
1498592966,2.6526272641228785,2.1067706832721567
1498592966,2.6350165780833352,2.437063734126784
1498592967,2.60649647470692,2.4898236355424457
1498592967,2.3782525138289086,2.3425872274685675
1498592968,2.4698957568245596,2.544738985266059
1498592968,2.830090511073932,2.812543266496202
1498592969,2.8773428511136756,2.9340880665225106
1498592969,2.8644388674104353,2.7860430867669286
1498592970,2.92225147432809,2.9853960587131905
1498592970,3.1784601997016293,3.16944247568785
1498592971,3.138297971577132,3.3343491207564706
1498592971,3.0833181277050836,3.4657249948033773
1498592972,2.9939607206365646,3.6209188696109926
1498592973,2.9245156670115624,3.764845811365487
1498592973,2.798424329620989,3.917621089695256
1498592973,2.645371390733313,4.030508924344497
1498592974,2.515538066582514,4.1831049117068195
1498592974,2.531603505158242,4.402097863697287
1498592975,2.44148438716258,4.519323284169639
1498592975,2.3716319673198645,4.522281294920047
1498592976,2.338516938765003,4.666657964955566
1498592976,2.483607635327269,4.8178283760830265
1498592977,2.38589661421529,4.990494074705588
1498592977,2.3906987753711797,5.049917407163932
1498592978,2.331533111080771,5.209397822647875
1498592978,2.545254503086613,5.3851941111088415
1498592979,2.528801432832725,5.535042118208223
1498592980,2.596304033937525,5.79397902693426
1498592980,2.5698673038730377,5.87556234361219
1498592980,2.439446550026604,6.2316741651998155
1498592981,2.4024564390949634,6.271423154818313
1498592981,2.096530111048277,6.211358605070817
1498592982,2.1486699466633246,6.331373688489821
1498592982,2.2470705488232854,6.636066023836446
1498592983,2.1977956744773772,6.710751323966411
1498592983,1.9489597443737008,6.747490056595704
1498592984,1.9938921124435933,6.853029843841934
1498592984,2.1186187056025,6.841922186190322
1498592985,2.1497545328168295,6.987965266061991
1498592985,2.366767207139479,7.476647573317394
1498592986,2.2982412379575954,7.534735381424512
1498592987,1.9399774140116475,7.59219808267884
1498592987,2.027741075039009,7.618924234183273
1498592987,2.1093782214276957,7.907591444476616
1498592988,2.1301306198674532,7.842827039935936
1498592988,1.8140213217238723,7.985932566975779
1498592989,1.9444259488365774,7.811812123119167
1498592989,1.8596466806404193,7.833237283768714
1498592990,1.9442023535674102,7.659736820913562
1498592990,1.77471763587566,7.247470200912195
1498592991,1.9035352482340362,7.140684861259205
1498592991,2.0968434414290353,6.953342762914687
1498592992,2.117363573720505,6.849691432321064
1498592992,2.1174481264014657,6.849662114229927
1498592992,2.1777654417145658,6.443958437720355
1498592993,2.1867153683250806,6.4321739998297245
1498592994,2.592216214983402,6.668926280780722
1498592994,2.525843602264513,6.461919563015632
1498592994,2.2235929533010195,6.40130725924999
1498592995,2.3077604762192596,6.224232861291577
1498592996,2.162566161665139,5.999505908120122
1498592996,2.265313345649301,5.885019037617959
1498592996,2.3152128520720114,5.860958650965426
1498592997,2.3362396964064307,5.722515267230733
1498592997,2.182151123794496,5.465378235210904
1498592998,2.2419111065316235,5.340899980588141
1498592999,2.2892321549177446,5.275779703885212
1498592999,2.17464385874962,5.10783781921393
1498593000,2.2186549360240413,4.912993076991831
1498593001,2.1461376733423867,4.628462428023922
1498593001,2.232674506070736,4.511713548612248
1498593001,2.302738101461864,4.6879599637862865
1498593002,2.342311510100887,4.5407993414675225
1498593002,2.124806662263943,4.4601162379180375
1498593003,2.318712141519497,4.294933715441098
1498593003,2.4807521887665174,4.493732115314929
1498593004,2.635428031152562,4.3130802862407
1498593004,2.365119299394563,4.347854393073256
1498593005,2.5840688202849753,4.0357270180519444
1498593006,2.3917131312635345,3.7895963580001006
1498593006,2.579841579387577,3.5106124247241457
1498593007,2.721387817711452,3.306440010843453
1498593008,2.6082020900575063,3.305221954820226
1498593008,2.614991763420363,3.0947164195039623
1498593008,2.370346049598343,3.037027381411418
1498593009,2.3945891467720006,2.8534540689847474
1498593010,2.2531679546758396,2.628430502272653
1498593010,2.3187388915845037,2.45237841467931
1498593010,2.3672895566956225,2.0905258786330387
1498593011,2.419861262845803,2.002459382979527
1498593011,2.758472631720684,2.048339325648235
1498593012,2.7366022419904086,1.9919441585363122
