1498766264,2.3084577360446805,7.158431460886869
1498766264,2.308744994726426,7.152973743002758
1498766265,2.3100634240342806,7.127924490864865
1498766265,2.3101722795729995,7.125856310268909
1498766266,2.3164801665169414,7.006010787067651
1498766266,2.318278633443188,6.974338574245402
1498766267,2.310298187909494,7.112236800993389
1498766267,2.3092704047570236,7.128534903175545
1498766268,2.3139276249399967,7.055393241985713
1498766268,2.3160216875690436,7.025088489611829
1498766269,2.3459023189987196,6.6062658370699925
1498766269,2.3520039039573035,6.523773784388656
1498766270,2.3646790396471746,6.353597086265771
1498766270,2.364938578446568,6.350383940139804
1498766271,2.378526853512102,6.182403937454353
1498766271,2.381390878691753,6.148338006153585
1498766272,2.3443318506454762,6.585847213511267
1498766272,2.340983195136376,6.625019205816597
1498766273,2.311490478809823,6.969738861866446
1498766273,2.3027455435820205,7.065925534104628
1498766274,2.3519077661631504,6.533942661966015
1498766274,2.358974910645186,6.458175249324459
1498766275,2.3516803187121704,6.536281422774482
1498766275,2.351630724138032,6.53679358468237
1498766276,2.3174521986075916,6.8896724627760255
1498766276,2.3096996910043295,6.966222716952751
1498766277,2.366210936441476,6.41344407667447
1498766277,2.3678388539205857,6.397745797278689
1498766278,2.325715265630902,6.803788552909662
1498766278,2.316620098950035,6.889887135601219
1498766279,2.304270981346946,7.006360573629167
1498766279,2.303220186862333,7.01580895279987
1498766280,2.3266563602940598,6.8058679833844
1498766280,2.3339415120542557,6.741487179910296
1498766281,2.3483376352968266,6.614789303329714
1498766281,2.350292458832913,6.597983642173012
1498766282,2.368139965479929,6.445017296550043
1498766282,2.375208993919111,6.386243497438974
1498766283,2.361507598854144,6.498869263134554
1498766283,2.3590286654275503,6.518738223629394
1498766284,2.412259913697513,6.093943120731883
1498766284,2.4184889809552215,6.045543441050868
1498766285,2.4185044893363536,6.04542329907656
1498766285,2.418504489324083,6.045423298725111
1498766286,2.410896539346944,6.103054586992283
1498766286,2.4103747628175443,6.107007895781338
1498766287,2.413077616287786,6.086528991930857
1498766287,2.4139182609421455,6.080118088767244
1498766288,2.4170255402901475,6.056373567664793
1498766288,2.4174396625394503,6.053206564843431
