1498591980,-2.0625e-05,-7.5e-05,-0.000376875
1498591980,-2.0625e-05,-8.1875e-05,-0.000371875
1498591980,-2.5e-05,-7.875e-05,-0.0003675
1498591980,-2.0625e-05,-7.875e-05,-0.000365
1498591980,-2.5e-05,-7.1875e-05,-0.000371875
1498591980,-4e-05,-8.1875e-05,-0.000371875
1498591980,-1.75e-05,-8.1875e-05,-0.000376875
1498591980,-1.75e-05,-7.1875e-05,-0.0003725
1498591980,-2.5e-05,-8.1875e-05,-0.000365
1498591981,-2.0625e-05,-7.875e-05,-0.0003725
1498591981,-2.0625e-05,-8.1875e-05,-0.000365
1498591981,-2.5e-05,-8.5625e-05,-0.0003675
1498591981,-2.0625e-05,-8.1875e-05,-0.000376875
1498591981,-2.0625e-05,-7.5e-05,-0.000365
1498591981,-1.375e-05,-8.1875e-05,-0.000376875
1498591981,-1.375e-05,-8.1875e-05,-0.000365
1498591981,-2.0625e-05,-7.875e-05,-0.0003675
1498591981,-1.0625e-05,-7.5e-05,-0.0003725
1498591981,-1.0625e-05,-7.5e-05,-0.000365
1498591981,-1.375e-05,-7.875e-05,-0.000360625
1498591981,-1.375e-05,-7.875e-05,-0.00038
1498591981,-2.0625e-05,-8.5625e-05,-0.000365
1498591981,-1.375e-05,-9e-05,-0.0003725
1498591981,-1.375e-05,-9e-05,-0.000365
1498591981,-1.0625e-05,-8.5625e-05,-0.000365
1498591981,-6.875e-06,-7.5e-05,-0.000356875
1498591981,-2.5e-05,-7.5e-05,-0.0003725
1498591981,-1.0625e-05,-8.5625e-05,-0.000365
1498591981,-2.5e-06,-8.5625e-05,-0.000360625
1498591982,-1.0625e-05,-8.5625e-05,-0.000365
1498591982,-1.375e-05,-8.1875e-05,-0.0003675
1498591982,-2.0625e-05,-7.1875e-05,-0.000365
1498591982,-1.375e-05,-6.75e-05,-0.0003675
1498591982,-2.0625e-05,-7.1875e-05,-0.000365
1498591982,-1.75e-05,-8.1875e-05,-0.000365
1498591982,-2.0625e-05,-7.875e-05,-0.000371875
1498591982,-1.375e-05,-7.875e-05,-0.0003675
1498591982,-1.0625e-05,-8.1875e-05,-0.0003675
1498591982,-1.75e-05,-7.5e-05,-0.000360625
1498591982,-2.0625e-05,-7.875e-05,-0.0003675
1498591982,-2.875e-05,-8.1875e-05,-0.0003675
1498591982,-2.0625e-05,-7.5e-05,-0.000356875
1498591982,-1.0625e-05,-8.1875e-05,-0.0003675
1498591982,-2.5e-05,-8.1875e-05,-0.000376875
1498591982,-1.75e-05,-7.875e-05,-0.000360625
1498591982,-1.75e-05,-7.1875e-05,-0.000365
1498591982,-1.375e-05,-9e-05,-0.000365
1498591982,-1.75e-05,-7.875e-05,-0.000356875
1498591982,-1.75e-05,-7.5e-05,-0.0003525
1498591983,-1.375e-05,-8.1875e-05,-0.000360625
1498591983,-1.75e-05,-7.875e-05,-0.0003525
1498591983,-2.5e-05,-7.875e-05,-0.0003675
1498591983,-2.5e-05,-8.5625e-05,-0.0003675
1498591983,-3.1875e-05,-8.5625e-05,-0.000360625
1498591983,-3.1875e-05,-8.5625e-05,-0.000360625
1498591983,-2.5e-05,-8.1875e-05,-0.000360625
1498591983,-2.5e-05,-8.1875e-05,-0.000360625
1498591983,-3.5625e-05,-8.5625e-05,-0.000365
1498591983,-1.375e-05,-7.875e-05,-0.0003525
1498591983,-1.75e-05,-8.1875e-05,-0.000376875
1498591983,-1.75e-05,-8.1875e-05,-0.000376875
1498591983,-1.375e-05,-8.5625e-05,-0.000365
1498591983,-2.0625e-05,-8.5625e-05,-0.000365
1498591983,-2.0625e-05,-8.5625e-05,-0.000365
1498591983,-1.75e-05,-8.1875e-05,-0.000360625
1498591983,-1.0625e-05,-8.1875e-05,-0.0003525
1498591983,-1.0625e-05,-7.875e-05,-0.000360625
1498591983,-2.5e-05,-7.5e-05,-0.000365
1498591983,-2.0625e-05,-7.875e-05,-0.00034875
1498591984,-1.375e-05,-8.5625e-05,-0.0003675
1498591984,-1.375e-05,-8.5625e-05,-0.0003675
1498591984,-2.0625e-05,-7.875e-05,-0.0003675
1498591984,-2.5e-05,-7.875e-05,-0.0003675
1498591984,-2.5e-05,-7.875e-05,-0.000376875
1498591984,-2.5e-05,-8.5625e-05,-0.000376875
1498591984,-2.0625e-05,-8.5625e-05,-0.00036
1498591984,-2.0625e-05,-8.1875e-05,-0.000371875
1498591984,-1.0625e-05,-8.5625e-05,-0.00036
1498591984,-1.0625e-05,-7.875e-05,-0.000365
1498591984,-2.0625e-05,-8.5625e-05,-0.000360625
1498591984,-1.75e-05,-8.5625e-05,-0.000365
1498591984,-1.75e-05,-8.5625e-05,-0.000365
1498591984,-1.75e-05,-7.1875e-05,-0.0003675
1498591984,-1.375e-05,-7.5e-05,-0.000376875
1498591984,-1.375e-05,-7.5e-05,-0.000376875
1498591984,-1.75e-05,-8.1875e-05,-0.0003675
1498591984,-1.75e-05,-8.1875e-05,-0.000371875
1498591984,-6.875e-06,-8.1875e-05,-0.0003675
1498591984,-1.75e-05,-8.1875e-05,-0.000365
1498591985,-1.375e-05,-8.5625e-05,-0.0003875
1498591985,-1.75e-05,-8.1875e-05,-0.000365
1498591985,-2.0625e-05,-8.1875e-05,-0.00038
1498591985,-1.0625e-05,-8.1875e-05,-0.000360625
1498591985,-2.0625e-05,-8.5625e-05,-0.000360625
1498591985,-2.5e-05,-8.1875e-05,-0.000356875
1498591985,-1.75e-05,-7.875e-05,-0.0003675
1498591985,-2.0625e-05,-8.5625e-05,-0.000360625
1498591985,-2.0625e-05,-8.5625e-05,-0.000365
1498591985,-2.0625e-05,-7.875e-05,-0.000360625
1498591985,-1.75e-05,-7.875e-05,-0.0003675
1498591985,-1.75e-05,-7.5e-05,-0.000371875
1498591985,-1.75e-05,-9e-05,-0.0003675
1498591985,-2.0625e-05,-8.1875e-05,-0.0003675
1498591985,-1.75e-05,-7.875e-05,-0.000376875
1498591985,-1.0625e-05,-7.875e-05,-0.0003675
1498591985,-1.75e-05,-8.1875e-05,-0.000365
1498591985,-2.5e-05,-8.1875e-05,-0.00038
1498591985,-1.375e-05,-7.875e-05,-0.0003525
1498591985,-2.5e-05,-8.5625e-05,-0.000356875
1498591986,-2.875e-05,-8.1875e-05,-0.000371875
1498591986,-1.75e-05,-8.1875e-05,-0.00038
1498591986,-1.0625e-05,-8.1875e-05,-0.000360625
1498591986,-1.375e-05,-7.5e-05,-0.000360625
1498591986,-1.0625e-05,-7.875e-05,-0.000371875
1498591986,-1.75e-05,-7.5e-05,-0.000376875
1498591986,-2.875e-05,-7.5e-05,-0.000365
1498591986,-1.375e-05,-7.5e-05,-0.000360625
1498591986,-2.875e-05,-8.1875e-05,-0.000356875
1498591986,-1.75e-05,-7.875e-05,-0.0003675
1498591986,-2.0625e-05,-8.1875e-05,-0.00038
1498591986,-1.0625e-05,-8.1875e-05,-0.000365
1498591986,-2.0625e-05,-7.875e-05,-0.000365
1498591986,-1.75e-05,-7.875e-05,-0.0003675
1498591986,-1.75e-05,-7.5e-05,-0.000371875
1498591986,-1.0625e-05,-7.875e-05,-0.0003675
1498591986,-1.0625e-05,-7.5e-05,-0.000365
1498591986,-1.75e-05,-7.5e-05,-0.000360625
1498591986,-1.375e-05,-7.875e-05,-0.000371875
1498591987,-2.0625e-05,-7.875e-05,-0.0003725
1498591987,-2.5e-05,-7.5e-05,-0.0003675
1498591987,-2.5e-05,-7.875e-05,-0.000360625
1498591987,-2.5e-05,-7.875e-05,-0.000376875
1498591987,-2.5e-05,-8.5625e-05,-0.000365
1498591987,-2.5e-05,-7.875e-05,-0.0003725
1498591987,-2.0625e-05,-7.875e-05,-0.000356875
1498591987,-2.5e-05,-8.1875e-05,-0.000365
1498591987,-1.0625e-05,-7.1875e-05,-0.0003675
1498591987,-1.375e-05,-7.5e-05,-0.00038375
1498591987,-1.75e-05,-8.1875e-05,-0.00016375
1498591987,-1.75e-05,-7.5e-05,-0.0001625
1498591987,-1.75e-05,-7.875e-05,-0.000180625
1498591987,-6.875e-06,-8.5625e-05,-0.000161875
1498591987,0.0,-8.1875e-05,-0.000165625
1498591987,-1.0625e-05,-7.875e-05,-0.0001725
1498591987,-2.5e-06,-8.1875e-05,-0.00017
1498591987,-2.5e-06,-7.5e-05,-0.0001625
1498591987,3.75e-06,-7.5e-05,-0.00018375
1498591987,-6.875e-06,-8.1875e-05,-0.00018
1498591987,0.0,-7.5e-05,-0.000171875
1498591988,0.0,-7.1875e-05,-0.000171875
1498591988,3.75e-06,-8.1875e-05,-0.0001875
1498591988,-2.5e-06,-7.875e-05,-0.000175625
1498591988,0.0,-9e-05,-0.00018
1498591988,3.75e-06,-6.75e-05,-0.000171875
1498591988,3.75e-06,-7.875e-05,-0.00018
1498591988,-6.875e-06,-7.875e-05,-0.00016375
1498591988,1.5e-05,-7.875e-05,-0.000175625
1498591988,3.75e-06,-9e-05,-0.0001675
1498591988,1.0625e-05,-8.1875e-05,-0.00016375
1498591988,3.75e-06,-8.1875e-05,-0.0001875
1498591988,6.875e-06,-8.5625e-05,-0.000171875
1498591988,6.875e-06,-9e-05,-0.000171875
1498591988,1.0625e-05,-7.875e-05,-0.0001675
1498591988,3.75e-06,-7.875e-05,-0.0001675
1498591988,3.75e-06,-9.375e-05,-0.000171875
1498591988,6.875e-06,-7.5e-05,-0.0001675
1498591988,6.875e-06,-9e-05,-0.00016375
1498591988,3.75e-06,-9.375e-05,-0.0001675
1498591988,1.0625e-05,-8.5625e-05,-0.0001675
1498591989,-2.5e-06,-9.6875e-05,-0.00016375
1498591989,6.875e-06,-9.375e-05,-0.0001675
1498591989,6.875e-06,-9.375e-05,-0.000171875
1498591989,1.875e-05,-9.6875e-05,-0.0001675
1498591989,3.75e-06,-9.6875e-05,-0.0001725
1498591989,0.0,-0.00010375,-0.000165
1498591989,6.875e-06,-9.5625e-05,-0.000165
1498591989,1.0625e-05,-9.875e-05,-0.000165
1498591989,0.0,-9.875e-05,-0.0001525
1498591989,0.0,-9.5625e-05,-0.00016875
1498591989,-6.875e-06,-9.5625e-05,-0.000165
1498591989,0.0,-9.5625e-05,-0.000185
1498591989,-2.5e-06,-9.25e-05,-0.000180625
1498591989,-6.875e-06,-9.5625e-05,-0.000180625
1498591989,-2.5e-06,-8.5e-05,-0.000180625
1498591989,-1.0625e-05,-9.875e-05,-0.000165
1498591989,-2.5e-06,-8.875e-05,-0.000180625
1498591989,-2.5e-06,-8.875e-05,-0.000176875
1498591989,-2.5e-06,-9.5625e-05,-0.0001725
1498591989,-6.875e-06,-8.5e-05,-0.0001725
1498591990,-1.0625e-05,-8.5e-05,-0.000185
1498591990,3.75e-06,-8.5625e-05,-0.000176875
1498591990,-1.0625e-05,-9e-05,-0.0001725
1498591990,-1.375e-05,-9.6875e-05,-0.000165
1498591990,-1.75e-05,-8.875e-05,-0.00016875
1498591990,-2.5e-05,-7.75e-05,-0.00016875
1498591990,-1.0625e-05,-8.1875e-05,-0.0001725
1498591990,-1.0625e-05,-9e-05,-0.000165
1498591990,-1.375e-05,-8.1875e-05,-0.000180625
1498591990,-1.75e-05,-9.375e-05,-0.000165
1498591990,-1.375e-05,-7.875e-05,-0.000180625
1498591990,-2.5e-05,-9e-05,-0.000176875
1498591990,-1.75e-05,-8.1875e-05,-0.000185
1498591990,-1.75e-05,-8.5625e-05,-0.0001725
1498591990,-2.875e-05,-7.875e-05,-0.0001725
1498591990,-1.75e-05,-8.5625e-05,-0.000180625
1498591990,-3.5625e-05,-8.1875e-05,-0.000180625
1498591990,-2.5e-05,-7.875e-05,-0.000175625
1498591990,-2.5e-05,-9e-05,-0.00018
1498591990,-2.0625e-05,-7.875e-05,-0.000175625
1498591991,-3.5625e-05,-8.1875e-05,-0.000175625
1498591991,-2.875e-05,-7.5e-05,-0.00018375
1498591991,-2.875e-05,-8.1875e-05,-0.00018375
1498591991,-3.1875e-05,-8.1875e-05,-0.0001675
1498591991,-3.5625e-05,-7.875e-05,-0.000175625
1498591991,-3.1875e-05,-7.875e-05,-0.00018375
1498591991,-2.875e-05,-7.1875e-05,-0.000175625
1498591991,-4.25e-05,-7.5e-05,-0.00018
1498591991,-4e-05,-7.5e-05,-0.00018375
1498591991,-4.25e-05,-7.875e-05,-0.000171875
1498591991,-4.5625e-05,-7.5e-05,-0.0001675
1498591991,-4.25e-05,-6.375e-05,-0.0001875
1498591991,-4e-05,-6.75e-05,-0.00018375
1498591991,-4.25e-05,-7.5e-05,-0.00018875
1498591991,-4.25e-05,-7.5e-05,-0.000190625
1498591991,-4.5625e-05,-7.5e-05,-0.000190625
1498591991,-4e-05,-6.75e-05,-0.000195625
1498591991,-5e-05,-7.1875e-05,-0.0001875
1498591991,-4e-05,-7.875e-05,-0.00018
1498591991,-4.25e-05,-7.875e-05,-0.00018
1498591992,-4.5625e-05,-7.5e-05,-0.0001875
1498591992,-4.25e-05,-7.875e-05,-0.000195625
1498591992,-4.25e-05,-8.1875e-05,-0.0001875
1498591992,-4.5625e-05,-7.5e-05,-0.00018375
1498591992,-4.25e-05,-6.75e-05,-0.000171875
1498591992,-5.75e-05,-8.1875e-05,-0.0002
1498591992,-5.75e-05,-7.1875e-05,-0.000195
1498591992,-4.5625e-05,-8.5625e-05,-0.0001875
1498591992,-4.25e-05,-8.1875e-05,-0.0001875
1498591992,-5.375e-05,-8.1875e-05,-0.000190625
1498591992,-4.25e-05,-7.875e-05,-0.0001875
1498591992,-4e-05,-8.1875e-05,-0.0001875
1498591992,-4.25e-05,-7.875e-05,-0.000190625
1498591992,-5.375e-05,-7.875e-05,-0.00018375
1498591992,-5e-05,-8.5625e-05,-0.0001875
1498591992,-4.5625e-05,-7.875e-05,-0.0002
1498591992,-4.25e-05,-7.875e-05,-0.000195625
1498591992,-5.375e-05,-8.1875e-05,-0.0002
1498591992,-5e-05,-7.5e-05,-0.000190625
1498591992,-5.375e-05,-7.875e-05,-0.0002
1498591993,-5.375e-05,-7.1875e-05,-0.000190625
1498591993,-5.375e-05,-6.75e-05,-0.0002
1498591993,-4.25e-05,-7.875e-05,-0.0002025
1498591993,-4.5625e-05,-7.1875e-05,-0.000190625
1498591993,-4.5625e-05,-7.1875e-05,-0.0002
1498591993,-5e-05,-7.875e-05,-0.0002
1498591993,-4.5625e-05,-7.5e-05,-0.000195625
1498591993,-5.75e-05,-8.1875e-05,-0.0002
1498591993,-5.375e-05,-7.5e-05,-0.000195625
1498591993,-3.5625e-05,-7.1875e-05,-0.0002
1498591993,-4e-05,-7.5e-05,-0.0002075
1498591993,-2.875e-05,-6.75e-05,-0.000190625
1498591993,-4e-05,-7.875e-05,-0.000195
1498591993,-2.5e-05,-6.375e-05,-0.0002
1498591993,-2.875e-05,-7.5e-05,-0.000195625
1498591993,-3.1875e-05,-8.1875e-05,-0.0002075
1498591993,-2.875e-05,-6.75e-05,-0.0002
1498591993,-1.75e-05,-7.875e-05,-0.0002025
1498591993,-2.5e-05,-7.1875e-05,-0.0002025
1498591994,-2.0625e-05,-7.875e-05,-0.0002
1498591994,-2.0625e-05,-7.875e-05,-0.00020375
1498591994,-1.75e-05,-7.1875e-05,-0.000195625
1498591994,-1.375e-05,-7.875e-05,-0.000195625
1498591994,-2.5e-06,-7.1875e-05,-0.00020375
1498591994,0.0,-7.875e-05,-0.000196875
1498591994,-6.875e-06,-7.875e-05,-0.0002075
1498591994,-6.875e-06,-7.1875e-05,-0.00020375
1498591994,-2.5e-06,-7.875e-05,-0.000195625
1498591994,0.0,-7.5e-05,-0.0002075
1498591994,-1.0625e-05,-7.875e-05,-0.000200625
1498591994,-2.5e-06,-7.875e-05,-0.000200625
1498591994,-2.5e-06,-7.875e-05,-0.000200625
1498591994,0.0,-7.875e-05,-0.000215625
1498591994,3.75e-06,-7.875e-05,-0.000210625
1498591994,3.75e-06,-7.875e-05,-0.000210625
1498591994,0.0,-7.875e-05,-0.0002025
1498591994,6.875e-06,-8.1875e-05,-0.000215
1498591994,-2.5e-06,-6.75e-05,-0.000190625
1498591994,3.75e-06,-7.5e-05,-0.000210625
1498591994,0.0,-7.5e-05,-0.0002025
1498591995,1.875e-05,-7.875e-05,-0.0002025
1498591995,1.875e-05,-7.1875e-05,-0.0002
1498591995,6.875e-06,-6.75e-05,-0.000206875
1498591995,1.875e-05,-7.5e-05,-0.0002025
1498591995,0.0,-7.5e-05,-0.0002075
1498591995,0.0,-7.5e-05,-0.0002075
1498591995,1.5e-05,-8.5625e-05,-0.000206875
1498591995,3.75e-06,-6.75e-05,-0.0002
1498591995,3.75e-06,-6.75e-05,-0.0002
1498591995,1.5e-05,-7.1875e-05,-0.0002
1498591995,1.0625e-05,-6.75e-05,-0.0002025
1498591995,2.1875e-05,-6.375e-05,-0.0002025
1498591995,1.5e-05,-7.1875e-05,-0.0002025
1498591995,1.0625e-05,-7.875e-05,-0.0002
1498591995,3.75e-06,-7.1875e-05,-0.000195625
1498591995,3.75e-06,-6.75e-05,-0.0002
1498591995,3.75e-06,-6.75e-05,-0.0002
1498591995,6.875e-06,-7.875e-05,-0.000195
1498591995,6.875e-06,-7.875e-05,-0.0002
1498591995,1.0625e-05,-7.875e-05,-0.000195625
1498591996,1.5e-05,-8.1875e-05,-0.0002
1498591996,1.0625e-05,-8.1875e-05,-0.000195
1498591996,1.0625e-05,-8.1875e-05,-0.000195
1498591996,6.875e-06,-7.5e-05,-0.000196875
1498591996,6.875e-06,-7.875e-05,-0.00018875
1498591996,-2.5e-06,-7.875e-05,-0.00020375
1498591996,-2.5e-06,-8.1875e-05,-0.00018875
1498591996,0.0,-8.1875e-05,-0.000185
1498591996,-1.0625e-05,-7.5e-05,-0.000191875
1498591996,-6.875e-06,-6.5e-05,-0.0002075
1498591996,0.0,-7.5e-05,-0.00018875
1498591996,-1.75e-05,-7.1875e-05,-0.000185
1498591996,-1.0625e-05,-6.375e-05,-0.000200625
1498591996,-6.875e-06,-6.75e-05,-0.000191875
1498591996,-1.375e-05,-7.875e-05,-0.000200625
1498591996,-6.875e-06,-7.1875e-05,-0.000200625
1498591996,-2.0625e-05,-6.5e-05,-0.000195625
1498591996,-2.0625e-05,-7.875e-05,-0.000185
1498591996,-2.5e-05,-6.75e-05,-0.00018875
1498591996,-1.75e-05,-7.1875e-05,-0.00020375
1498591997,-2.5e-05,-7.875e-05,-0.00018875
1498591997,-3.1875e-05,-6.75e-05,-0.000185
1498591997,-2.0625e-05,-5.6875e-05,-0.0002075
1498591997,-2.875e-05,-7.1875e-05,-0.000196875
1498591997,-2.875e-05,-7.1875e-05,-0.000196875
1498591997,-3.5625e-05,-6.75e-05,-0.000200625
1498591997,-3.5625e-05,-5.6875e-05,-0.00020375
1498591997,-4e-05,-6.5e-05,-0.000200625
1498591997,-4e-05,-6.5e-05,-0.000176875
1498591997,-3.5625e-05,-5.6875e-05,-0.000196875
1498591997,-4.25e-05,-6.75e-05,-0.000195
1498591997,-4e-05,-7.1875e-05,-0.000190625
1498591997,-4.25e-05,-7.5e-05,-0.00018375
1498591997,-5e-05,-7.1875e-05,-0.000200625
1498591997,-5.375e-05,-6.375e-05,-0.000190625
1498591997,-4.5625e-05,-7.1875e-05,-0.000195
1498591997,-4.5625e-05,-6.75e-05,-0.000195
1498591997,-4.5625e-05,-6.75e-05,-0.0002
1498591997,-5.375e-05,-6.75e-05,-0.000190625
1498591997,-5.75e-05,-6.5e-05,-0.000190625
1498591998,-5e-05,-7.875e-05,-0.00018375
1498591998,-5e-05,-7.875e-05,-0.00018375
1498591998,-6.5e-05,-6.75e-05,-0.000195625
1498591998,-6.5e-05,-6.5e-05,-0.000195
1498591998,-6.5e-05,-6.375e-05,-0.0002025
1498591998,-6.5e-05,-6.0625e-05,-0.000195625
1498591998,-6.0625e-05,-7.1875e-05,-0.000190625
1498591998,-7.1875e-05,-6.375e-05,-0.000195625
1498591998,-7.875e-05,-6.5e-05,-0.0002
1498591998,-7.5625e-05,-6.75e-05,-0.0001875
1498591998,-7.0625e-05,-6.5e-05,-0.000195
1498591998,-8.1875e-05,-6.75e-05,-0.000190625
1498591998,-7.5e-05,-7.1875e-05,-0.0001875
1498591998,-8.1875e-05,-6.75e-05,-0.000195625
1498591998,-7.875e-05,-6.75e-05,-0.0002
1498591998,-8.1875e-05,-8.1875e-05,-0.0002
1498591998,-8.1875e-05,-8.1875e-05,-0.000195
1498591998,-7.875e-05,-8.1875e-05,-0.0002025
1498591998,-8.5e-05,-9e-05,-0.000195625
1498591998,-8.5e-05,-9.375e-05,-0.000190625
1498591999,-7.75e-05,-9e-05,-0.0001875
1498591999,-7.5e-05,-8.5625e-05,-0.0001875
1498591999,-7.75e-05,-9.375e-05,-0.0001875
1498591999,-8.1875e-05,-9e-05,-0.00018875
1498591999,-8.5e-05,-0.0001,-0.00018875
1498591999,-7.5e-05,-0.0001,-0.000200625
1498591999,-7.0625e-05,-0.0001075,-0.000191875
1498591999,-7.75e-05,-0.000111875,-0.000191875
1498591999,-7.5e-05,-0.00011375,-0.00018875
1498591999,-5.6875e-05,-0.0001175,-0.00020375
1498591999,-5.6875e-05,-0.00011375,-0.000191875
1498591999,-6.6875e-05,-0.0001175,-0.000196875
1498591999,-6e-05,-0.00011375,-0.000200625
1498591999,-6e-05,-0.000110625,-0.000195625
1498591999,-5.25e-05,-0.000125,-0.00020375
1498591999,-4.875e-05,-0.000125,-0.00020375
1498591999,-5e-05,-0.000120625,-0.000211875
1498591999,-5.375e-05,-0.0001175,-0.0002075
1498591999,-4.25e-05,-0.000125,-0.000196875
1498591999,-4.5625e-05,-0.000125,-0.000200625
1498592000,-4.5625e-05,-0.000125,-0.000211875
1498592000,-4.25e-05,-0.00011375,-0.000211875
1498592000,-4.25e-05,-0.0001175,-0.000215625
1498592000,-4e-05,-0.00011375,-0.0002075
1498592000,-4e-05,-0.000120625,-0.00020375
1498592000,-3.5625e-05,-0.00011375,-0.00022
1498592000,-3.1875e-05,-0.000106875,-0.000211875
1498592000,-2.0625e-05,-0.00011375,-0.0002275
1498592000,-3.1875e-05,-0.0001175,-0.00022
1498592000,-2.0625e-05,-0.0001175,-0.0002075
1498592000,-1.75e-05,-0.000120625,-0.00022375
1498592000,-2.0625e-05,-0.0001175,-0.00020875
1498592000,-2.0625e-05,-0.0001175,-0.000211875
1498592000,-1.75e-05,-0.0001175,-0.00022375
1498592000,-2.0625e-05,-0.000120625,-0.00020375
1498592000,-1.75e-05,-0.0001175,-0.00022375
1498592000,-2.5e-05,-0.0001175,-0.000215625
1498592000,-1.75e-05,-0.0001175,-0.000215625
1498592000,-2.0625e-05,-0.0001175,-0.00022
1498592001,-1.75e-05,-0.000125,-0.000211875
1498592001,-1.0625e-05,-0.000125,-0.000215625
1498592001,-1.0625e-05,-0.000125,-0.000215625
1498592001,-1.0625e-05,-0.000120625,-0.0002275
1498592001,-1.0625e-05,-0.000120625,-0.000231875
1498592001,-2.5e-05,-0.0001175,-0.00022375
1498592001,-1.375e-05,-0.000125,-0.00022
1498592001,-2.5e-05,-0.000120625,-0.00022
1498592001,-2.0625e-05,-0.0001175,-0.00022375
1498592001,-1.0625e-05,-0.000110625,-0.000215625
1498592001,-1.75e-05,-0.000120625,-0.00022375
1498592001,-1.75e-05,-0.0001175,-0.000231875
1498592001,-1.375e-05,-0.00012875,-0.00022375
1498592001,-1.0625e-05,-0.000125,-0.0002275
1498592001,-1.75e-05,-0.000120625,-0.00022
1498592001,-2.5e-05,-0.000120625,-0.000215625
1498592001,-3.1875e-05,-0.000120625,-0.000211875
1498592001,-2.5e-05,-0.0001175,-0.000215625
1498592001,-3.5625e-05,-0.0001175,-0.0002275
1498592001,-3.1875e-05,-0.0001175,-0.000215625
1498592002,-4.5625e-05,-0.000120625,-0.000211875
1498592002,-3.5625e-05,-0.0001175,-0.00022
1498592002,-4.5625e-05,-0.00011375,-0.000211875
1498592002,-4e-05,-0.00011375,-0.000211875
1498592002,-3.5625e-05,-0.0001175,-0.000211875
1498592002,-4e-05,-0.000120625,-0.0002075
1498592002,-4.25e-05,-0.00011375,-0.00022
1498592002,-4.25e-05,-0.00011375,-0.000211875
1498592002,-5e-05,-0.0001175,-0.000200625
1498592002,-5e-05,-0.000120625,-0.00020375
1498592002,-5.375e-05,-0.000120625,-0.0002075
1498592002,-5.75e-05,-0.000120625,-0.000211875
1498592002,-5.375e-05,-0.000110625,-0.000195625
1498592002,-6.0625e-05,-0.0001175,-0.00020375
1498592002,-6.0625e-05,-0.000120625,-0.00020375
1498592002,-7.1875e-05,-0.00011375,-0.00020375
1498592002,-6.75e-05,-0.000110625,-0.000195625
1498592002,-6.75e-05,-0.000110625,-0.000200625
1498592002,-7.875e-05,-0.000106875,-0.000191875
1498592002,-7.1875e-05,-0.000106875,-0.00020375
1498592002,-7.5625e-05,-0.0001025,-0.000200625
1498592003,-8.5e-05,-9.5625e-05,-0.000195625
1498592003,-7.75e-05,-9.875e-05,-0.000191875
1498592003,-8.1875e-05,-9.875e-05,-0.00020375
1498592003,-7.5e-05,-9.5625e-05,-0.000200625
1498592003,-8.5e-05,-8.5e-05,-0.000195625
1498592003,-7.5e-05,-7.375e-05,-0.00018875
1498592003,-8.5e-05,-9e-05,-0.000195625
1498592003,-8.875e-05,-9e-05,-0.00018875
1498592003,-8.1875e-05,-7.875e-05,-0.000191875
1498592003,-8.5e-05,-7.875e-05,-0.0001925
1498592003,-7.75e-05,-6.5e-05,-0.000201875
1498592003,-7.5e-05,-7.1875e-05,-0.000201875
1498592003,-6.6875e-05,-7.1875e-05,-0.0002125
1498592003,-7.5e-05,-6.75e-05,-0.00019
1498592003,-7.0625e-05,-6.5e-05,-0.000201875
1498592003,-7.5e-05,-5.6875e-05,-0.000201875
1498592003,-7.5e-05,-6.5e-05,-0.000196875
1498592003,-7.0625e-05,-6.0625e-05,-0.000205
1498592003,-7.1875e-05,-6.0625e-05,-0.000201875
1498592003,-7.1875e-05,-6.75e-05,-0.000205
1498592004,-6.0625e-05,-6.0625e-05,-0.000201875
1498592004,-6.5e-05,-6.375e-05,-0.0001975
1498592004,-5.75e-05,-6.0625e-05,-0.000201875
1498592004,-5.75e-05,-6.375e-05,-0.0001925
1498592004,-6.5e-05,-6.75e-05,-0.00019
1498592004,-5.75e-05,-6.5e-05,-0.000201875
1498592004,-4.5625e-05,-6.5e-05,-0.000201875
1498592004,-5.75e-05,-6.75e-05,-0.00019
1498592004,-5.75e-05,-7.1875e-05,-0.000205
1498592004,-5.375e-05,-7.875e-05,-0.000196875
1498592004,-5.375e-05,-6.5e-05,-0.0001925
1498592004,-4.25e-05,-7.1875e-05,-0.000201875
1498592004,-5e-05,-7.1875e-05,-0.00019
1498592004,-5e-05,-6.5e-05,-0.000196875
1498592004,-4e-05,-7.5e-05,-0.00020875
1498592004,-3.5625e-05,-7.1875e-05,-0.00019
1498592004,-4.25e-05,-7.5e-05,-0.00019
1498592004,-4.25e-05,-6.75e-05,-0.00019
1498592004,-4e-05,-7.1875e-05,-0.000201875
1498592004,-4.5625e-05,-7.5e-05,-0.000185625
1498592005,-2.875e-05,-7.875e-05,-0.00019
1498592005,-4.5625e-05,-7.1875e-05,-0.000205
1498592005,-2.875e-05,-7.875e-05,-0.000185
1498592005,-3.5625e-05,-6.75e-05,-0.000196875
1498592005,-3.1875e-05,-7.5e-05,-0.000185
1498592005,-3.1875e-05,-7.1875e-05,-0.00019
1498592005,-2.875e-05,-7.1875e-05,-0.0001925
1498592005,-3.1875e-05,-7.1875e-05,-0.0001925
1498592005,-1.75e-05,-7.1875e-05,-0.0001925
1498592005,-2.5e-05,-6.75e-05,-0.0001925
1498592005,-1.75e-05,-7.5e-05,-0.0001925
1498592005,-2.875e-05,-7.875e-05,-0.0001925
1498592005,-1.375e-05,-6.75e-05,-0.0001925
1498592005,-6.875e-06,-7.1875e-05,-0.000196875
1498592005,-1.375e-05,-7.5e-05,-0.000196875
1498592005,-2.5e-06,-7.875e-05,-0.0001925
1498592005,0.0,-7.875e-05,-0.000196875
1498592005,-1.0625e-05,-7.875e-05,-0.000205
1498592005,3.75e-06,-8.0625e-05,-0.000201875
1498592005,-6.875e-06,-7.375e-05,-0.00019
1498592006,0.0,-8.0625e-05,-0.000196875
1498592006,6.875e-06,-7.75e-05,-0.000181875
1498592006,6.875e-06,-8.0625e-05,-0.000185625
1498592006,6.875e-06,-8.5e-05,-0.000181875
1498592006,1.0625e-05,-8.875e-05,-0.000185625
1498592006,1.5e-05,-8.875e-05,-0.00019
1498592006,1.5e-05,-8.0625e-05,-0.000185
1498592006,1.5e-05,-8.0625e-05,-0.000185
1498592006,1.0625e-05,-7.75e-05,-0.0001925
1498592006,0.0,-7.375e-05,-0.000181875
1498592006,0.0,-7.375e-05,-0.000181875
1498592006,1.0625e-05,-7.75e-05,-0.000181875
1498592006,1.875e-05,-7.375e-05,-0.00019
1498592006,1.875e-05,-7.0625e-05,-0.0001925
1498592006,1.875e-05,-7.0625e-05,-0.0001925
1498592006,2.875e-05,-7.375e-05,-0.000201875
1498592006,1.875e-05,-6.6875e-05,-0.00019
1498592006,1.5e-05,-7.0625e-05,-0.0001925
1498592006,1.0625e-05,-7.0625e-05,-0.0001925
1498592007,1.5e-05,-6.375e-05,-0.00019
1498592007,1.5e-05,-6.375e-05,-0.00019
1498592007,1.0625e-05,-6.6875e-05,-0.0001925
1498592007,6.875e-06,-6.375e-05,-0.00019
1498592007,6.875e-06,-6.375e-05,-0.00019
1498592007,1.875e-05,-6.5e-05,-0.000201875
1498592007,6.875e-06,-6.0625e-05,-0.0001975
1498592007,6.875e-06,-6.0625e-05,-0.0001975
1498592007,1.0625e-05,-5.375e-05,-0.0002025
1498592007,3.75e-06,-6.5e-05,-0.000201875
1498592007,6.875e-06,-5.375e-05,-0.000201875
1498592007,6.875e-06,-7.1875e-05,-0.0001925
1498592007,-2.5e-06,-6.0625e-05,-0.0001925
1498592007,3.75e-06,-5.6875e-05,-0.000201875
1498592007,3.75e-06,-5.6875e-05,-0.000201875
1498592007,0.0,-5.6875e-05,-0.000201875
1498592007,-2.5e-06,-6.0625e-05,-0.0001925
1498592007,0.0,-6.5e-05,-0.00020875
1498592007,0.0,-6.5e-05,-0.00020875
1498592007,-6.875e-06,-6.5e-05,-0.00020875
1498592008,-6.875e-06,-5.6875e-05,-0.0001925
1498592008,-6.875e-06,-5.6875e-05,-0.0001925
1498592008,-1.0625e-05,-5.6875e-05,-0.00020875
1498592008,-6.875e-06,-5.6875e-05,-0.000205
1498592008,-6.875e-06,-5.6875e-05,-0.00020875
1498592008,-2.5e-06,-5.375e-05,-0.000205
1498592008,0.0,-6.0625e-05,-0.00020875
1498592008,-6.875e-06,-5.375e-05,-0.000205
1498592008,-6.875e-06,-5.6875e-05,-0.00020875
1498592008,-2.5e-06,-7.1875e-05,-0.00020875
1498592008,-2.5e-06,-7.1875e-05,-0.00020875
1498592008,3.75e-06,-6.5e-05,-0.00019
1498592008,0.0,-6.75e-05,-0.00020875
1498592008,1.375e-05,-7.1875e-05,-0.000205
1498592008,5.625e-06,-7.1875e-05,-0.000201875
1498592008,5.625e-06,-6.75e-05,-0.000205
1498592008,1e-05,-7.5e-05,-0.0002125
1498592008,1e-05,-7.875e-05,-0.000216875
1498592008,5.625e-06,-7.5e-05,-0.000201875
1498592008,-6.25e-07,-7.1875e-05,-0.000216875
1498592009,5.625e-06,-6.75e-05,-0.000201875
1498592009,5.625e-06,-6.75e-05,-0.000201875
1498592009,-3.75e-06,-6.75e-05,-0.0002125
1498592009,2.5e-06,-6.0625e-05,-0.000201875
1498592009,2.5e-06,-6.0625e-05,-0.000201875
1498592009,-6.25e-07,-7.5e-05,-0.000196875
1498592009,5.625e-06,-7.875e-05,-0.000205
1498592009,2.5e-06,-6.75e-05,-0.00020875
1498592009,-3.75e-06,-6.75e-05,-0.000201875
1498592009,-7.5e-06,-6.75e-05,-0.000216875
1498592009,-6.25e-07,-7.1875e-05,-0.000205
1498592009,-3.75e-06,-6.5e-05,-0.0002125
1498592009,-7.5e-06,-6.75e-05,-0.000205
1498592009,-1.1875e-05,-6.5e-05,-0.000216875
1498592009,-1.1875e-05,-6.75e-05,-0.0002125
1498592009,-1.1875e-05,-6.75e-05,-0.0002125
1498592009,-1.5e-05,-6.5e-05,-0.0002125
1498592009,-1.5e-05,-6.5e-05,-0.000205
1498592009,-2.5625e-05,-6.5e-05,-0.000205
1498592009,-1.1875e-05,-6.5e-05,-0.00020875
1498592009,-1.5e-05,-5.6875e-05,-0.000201875
1498592010,-1.1875e-05,-6.75e-05,-0.000205
1498592010,-1.875e-05,-6.5e-05,-0.00020875
1498592010,-1.875e-05,-6.75e-05,-0.00020875
1498592010,-2.1875e-05,-7.1875e-05,-0.000205
1498592010,-3e-05,-6.75e-05,-0.000196875
1498592010,-3.6875e-05,-6.5e-05,-0.000201875
1498592010,-2.1875e-05,-6.75e-05,-0.00020875
1498592010,-3e-05,-6.75e-05,-0.0002125
1498592010,-3.1875e-05,-8.1875e-05,-0.000196875
1498592010,-3.5625e-05,-7.1875e-05,-0.000205
1498592010,-4e-05,-7.5e-05,-0.000201875
1498592010,-3.1875e-05,-7.875e-05,-0.000205
1498592010,-2.875e-05,-7.875e-05,-0.000196875
1498592010,-2.5e-05,-7.875e-05,-0.0001975
1498592010,-3.5625e-05,-7.5e-05,-0.0001975
1498592010,-3.5625e-05,-9e-05,-0.0002025
1498592010,-2.875e-05,-8.1875e-05,-0.00019875
1498592010,-4e-05,-7.875e-05,-0.0002025
1498592010,-4.25e-05,-8.5625e-05,-0.0001975
1498592010,-4.25e-05,-7.875e-05,-0.000205625
1498592011,-4.25e-05,-7.5e-05,-0.000190625
1498592011,-4.5625e-05,-7.5e-05,-0.000205625
1498592011,-4.5625e-05,-8.1875e-05,-0.00017875
1498592011,-3.1875e-05,-8.1875e-05,-0.0001975
1498592011,-3.1875e-05,-8.1875e-05,-0.0001975
1498592011,-4.5625e-05,-7.875e-05,-0.00019375
1498592011,-5e-05,-7.875e-05,-0.000190625
1498592011,-4.5625e-05,-7.5e-05,-0.00019375
1498592011,-4.25e-05,-8.1875e-05,-0.000190625
1498592011,-4e-05,-7.875e-05,-0.000190625
1498592011,-5.375e-05,-7.875e-05,-0.000185625
1498592011,-4e-05,-8.1875e-05,-0.0001825
1498592011,-4e-05,-7.5e-05,-0.000190625
1498592011,-4e-05,-8.1875e-05,-0.000190625
1498592011,-3.1875e-05,-7.1875e-05,-0.0001825
1498592011,-3.5625e-05,-7.5e-05,-0.0001825
1498592011,-3.5625e-05,-7.875e-05,-0.0001825
1498592011,-4e-05,-7.875e-05,-0.0001825
1498592011,-2.875e-05,-8.1875e-05,-0.0001825
1498592011,-2.5e-05,-8.5625e-05,-0.0001825
1498592012,-3.1875e-05,-8.5625e-05,-0.00017875
1498592012,-2.875e-05,-8.0625e-05,-0.000175
1498592012,-2.5e-05,-8.1875e-05,-0.00017875
1498592012,-3.1875e-05,-9e-05,-0.0001825
1498592012,-2.5e-05,-8.5e-05,-0.000166875
1498592012,-1.75e-05,-8.875e-05,-0.000170625
1498592012,-1.75e-05,-9.5625e-05,-0.000166875
1498592012,-2.5e-05,-9.5625e-05,-0.000166875
1498592012,-1.75e-05,-9.875e-05,-0.000170625
1498592012,-1.75e-05,-9.25e-05,-0.00015875
1498592012,-1.375e-05,-9.875e-05,-0.0001625
1498592012,-2.875e-05,-9.5625e-05,-0.000155
1498592012,-1.375e-05,-9.5625e-05,-0.00015875
1498592012,-6.875e-06,-9.5625e-05,-0.00015875
1498592012,-1.375e-05,-9.5625e-05,-0.000155
1498592012,-1.0625e-05,-8.875e-05,-0.0001625
1498592012,-1.0625e-05,-9.875e-05,-0.000155
1498592012,-6.875e-06,-9.875e-05,-0.000155
1498592012,2.5e-06,-8.875e-05,-0.000155
1498592012,-3.75e-06,-9.25e-05,-0.000155
1498592013,-7.5e-06,-9.5625e-05,-0.000150625
1498592013,-3.75e-06,-9.5625e-05,-0.000155
1498592013,-1.1875e-05,-9.5625e-05,-0.0001475
1498592013,-3.75e-06,-9.5625e-05,-0.000150625
1498592013,-3.75e-06,-9.5625e-05,-0.000146875
1498592013,-6.25e-07,-9.5625e-05,-0.000150625
1498592013,-7.5e-06,-8.875e-05,-0.000150625
1498592013,-6.25e-07,-9.25e-05,-0.000150625
1498592013,-7.5e-06,-9.875e-05,-0.000150625
1498592013,-7.5e-06,-8.875e-05,-0.0001425
1498592013,-3.75e-06,-9.5625e-05,-0.000135625
1498592013,-3.75e-06,-9.5625e-05,-0.0001475
1498592013,5.625e-06,-9.25e-05,-0.000155
1498592013,2.5e-06,-9.5625e-05,-0.000150625
1498592013,-3.75e-06,-9.25e-05,-0.0001425
1498592013,-1.5e-05,-9.5625e-05,-0.000150625
1498592013,-6.25e-07,-9.25e-05,-0.000150625
1498592013,-3.75e-06,-0.0001025,-0.000150625
1498592013,-3.75e-06,-9.875e-05,-0.00015875
1498592014,-7.5e-06,-9.875e-05,-0.00015875
1498592014,-3.75e-06,-0.0001025,-0.000155
1498592014,-3.75e-06,-9.875e-05,-0.0001425
1498592014,-3.75e-06,-0.0001025,-0.0001475
1498592014,-3.75e-06,-9.5625e-05,-0.0001475
1498592014,-6.25e-07,-0.0001025,-0.000146875
1498592014,5.625e-06,-0.0001025,-0.000150625
1498592014,-3.75e-06,-0.000106875,-0.0001475
1498592014,1e-05,-9.875e-05,-0.0001475
1498592014,-6.25e-07,-8.875e-05,-0.000150625
1498592014,1e-05,-9.5625e-05,-0.00013875
1498592014,5.625e-06,-9.25e-05,-0.0001425
1498592014,2.5e-06,-9.5625e-05,-0.0001425
1498592014,5.625e-06,-9.25e-05,-0.000155
1498592014,5.625e-06,-8.875e-05,-0.0001475
1498592014,-6.25e-07,-7.75e-05,-0.0001475
1498592014,5.625e-06,-7.75e-05,-0.0001475
1498592014,2.5e-06,-7.0625e-05,-0.000136875
1498592014,1.375e-05,-7.0625e-05,-0.0001475
1498592014,2.5e-06,-6.6875e-05,-0.00016
1498592015,-6.25e-07,-6.6875e-05,-0.00014875
1498592015,1e-05,-6.6875e-05,-0.00016375
1498592015,-6.25e-07,-5.5625e-05,-0.00016375
1498592015,1.375e-05,-5.25e-05,-0.00014875
1498592015,-3.75e-06,-6.375e-05,-0.000151875
1498592015,-6.25e-07,-6e-05,-0.00016375
1498592015,5.625e-06,-4.875e-05,-0.000151875
1498592015,-6.25e-07,-4.875e-05,-0.000151875
1498592015,2.5e-06,-5.375e-05,-0.0001675
1498592015,-1.1875e-05,-5.375e-05,-0.00016
1498592015,-6.25e-07,-5.6875e-05,-0.000171875
1498592015,-3.75e-06,-5.6875e-05,-0.000175625
1498592015,-2.1875e-05,-5.6875e-05,-0.0001675
1498592015,-1.5e-05,-5.6875e-05,-0.0001625
1498592015,-1.1875e-05,-5.375e-05,-0.000175
1498592015,-2.5625e-05,-5e-05,-0.00017875
1498592015,-1.5e-05,-5e-05,-0.00017875
1498592015,-2.5625e-05,-5.375e-05,-0.000166875
1498592015,-2.5625e-05,-4.6875e-05,-0.000175
1498592015,-2.1875e-05,-5.375e-05,-0.000170625
1498592015,-1.875e-05,-3.875e-05,-0.000175
1498592016,-2.1875e-05,-5.6875e-05,-0.000170625
1498592016,-2.5625e-05,-5.375e-05,-0.000170625
1498592016,-2.1875e-05,-4.25e-05,-0.000186875
1498592016,-2.1875e-05,-5.375e-05,-0.000170625
1498592016,-2.1875e-05,-5e-05,-0.0001825
1498592016,-2.5625e-05,-5.6875e-05,-0.000175
1498592016,-2.1875e-05,-5.375e-05,-0.0001825
1498592016,-1.875e-05,-5.375e-05,-0.000190625
1498592016,-3.25e-05,-5.375e-05,-0.000175
1498592016,-1.875e-05,-6.0625e-05,-0.000190625
1498592016,-1.1875e-05,-5e-05,-0.000185625
1498592016,-1.1875e-05,-5e-05,-0.0001825
1498592016,-2.1875e-05,-5.375e-05,-0.00017875
1498592016,-1.5e-05,-5.6875e-05,-0.00019375
1498592016,-2.1875e-05,-6.0625e-05,-0.000190625
1498592016,-1.875e-05,-5e-05,-0.000175
1498592016,-2.5625e-05,-5.375e-05,-0.000170625
1498592016,-2.1875e-05,-4.6875e-05,-0.000170625
1498592016,-2.1875e-05,-5e-05,-0.0001825
1498592016,-1.875e-05,-5.375e-05,-0.000185625
1498592017,-1.875e-05,-5.375e-05,-0.00019375
1498592017,-3e-05,-5e-05,-0.0001825
1498592017,-1.5e-05,-5.375e-05,-0.000170625
1498592017,-1.875e-05,-5.6875e-05,-0.00017875
1498592017,-1.875e-05,-5.6875e-05,-0.000185625
1498592017,-1.875e-05,-5e-05,-0.000190625
1498592017,-3e-05,-5.375e-05,-0.0001825
1498592017,-3e-05,-5.6875e-05,-0.000175
1498592017,-3e-05,-5.375e-05,-0.0001825
1498592017,-3.25e-05,-5.375e-05,-0.0001825
1498592017,-2.5625e-05,-4.25e-05,-0.00017875
1498592017,-3e-05,-5.375e-05,-0.000185625
1498592017,-2.1875e-05,-5e-05,-0.000170625
1498592017,-2.5625e-05,-5.6875e-05,-0.00017875
1498592017,-2.1875e-05,-6.0625e-05,-0.000186875
1498592017,-3e-05,-5.6875e-05,-0.0001825
1498592017,-2.5625e-05,-5e-05,-0.0001825
1498592017,-2.5625e-05,-5e-05,-0.0001825
