1494862048826477050,2.78422905638,1.67950763349
1494862049056690931,2.78422905638,1.67950763349
1494862049091988086,2.78422905638,1.67950763349
1494862049359376907,2.78422905638,1.67950763349
1494862049369854927,2.78422905638,1.67950763349
1494862049646279096,2.78422905638,1.67950763349
1494862049919500112,2.78422905638,1.67950763349
1494862049927031040,2.78422905638,1.67950763349
1494862050206445932,2.78422905638,1.67950763349
1494862050461116075,2.78422905638,1.67950763349
1494862050487505912,2.78422905638,1.67950763349
1494862050766078948,2.78422905638,1.67950763349
1494862051048856973,2.78422905638,1.67950763349
1494862051324491977,2.78422905638,1.67950763349
1494862051325560092,2.78422905638,1.67950763349
1494862051613183975,2.78422905638,1.67950763349
1494862051903548002,2.78422905638,1.67950763349
1494862052163199901,2.78422905638,1.67950763349
1494862052163266897,2.78422905638,1.67950763349
1494862052454582929,2.78422905638,1.67950763349
1494862052710159063,2.78422905638,1.67950763349
1494862052739898920,2.78422905638,1.67950763349
1494862053017970085,2.78422905638,1.67950763349
1494862053300874948,2.78422905638,1.67950763349
1494862053573282957,2.78422905638,1.67950763349
1494862053850192070,2.78422905638,1.67950763349
1494862054110884904,2.78422905638,1.67950763349
1494862054127316951,2.78422905638,1.67950763349
1494862054407939910,2.7780825303643137,1.6946661715225309
1494862054658025979,2.7731792722082016,1.7117711832133005
1494862054691057920,2.7725224533777295,1.714042828099783
1494862054969252109,2.7659224884566824,1.7395412488955704
1494862055249062061,2.759168469649835,1.769051524483916
1494862055511533021,2.751471040354689,1.8004144909205377
1494862055528547048,2.7509608235605296,1.8024596095151364
1494862055814045906,2.7383740698981667,1.839858997584708
1494862056054721117,2.7299532021882955,1.8740179261804646
1494862056090289115,2.728700085787172,1.8790931158715003
1494862056371572017,2.7187177208681743,1.9211963709549806
1494862056372275114,2.718692476670599,1.9213024028290604
1494862056655754089,2.707474044705619,1.96628952871323
1494862056911825895,2.6981917018318904,2.0138318949410454
1494862056928287982,2.6975922328366355,2.0169084560292716
1494862057194576025,2.6886757714293976,2.067193843136073
1494862057217612028,2.687889072064856,2.071573540144146
1494862057438261032,2.6783110877392913,2.118802087505122
1494862057489679098,2.6760357399057937,2.12985186902338
1494862057770793914,2.6662369470698666,2.1774275634808844
1494862058049155950,2.6607142054158,2.223513305662175
1494862058316185951,2.6570254601780334,2.2677323968917475
1494862058330260038,2.6568290175428624,2.270079087933132
1494862058606621980,2.6507271004450157,2.316520113322796
1494862058854803085,2.6424202350076467,2.355243253320502
1494862058887751102,2.6413095330335605,2.360415344238797
1494862059168206930,2.6349617878670704,2.4060756834882255
1494862059172949075,2.6348538145084253,2.406853873692086
1494862059454596042,2.624224164324565,2.452195107045006
1494862059700164079,2.6188943298541396,2.4917620032921137
1494862059735106945,2.6181083756900887,2.4974219496270256
1494862060004759073,2.607795619329511,2.5421152507667855
1494862060015614986,2.607369040996649,2.543925671817969
1494862060298928976,2.599215484697124,2.591085120751881
1494862060563106060,2.586405412993804,2.6348358133038965
1494862060571912050,2.5859770902577255,2.636304204488461
1494862060845496892,2.573116207965361,2.6845627239671135
1494862061123243093,2.5621823459740853,2.728214345364195
1494862061139014005,2.5615542215853346,2.730711609525607
1494862061404519081,2.5466812479833827,2.7787647464565928
1494862061417757034,2.5459309558946264,2.7811771259002773
1494862061654889106,2.5370241299135223,2.8240703265208245
1494862061688047885,2.5357656568648888,2.8301013678624805
1494862061962111949,2.525596064406417,2.877294424321848
1494862061970999956,2.525257998577696,2.8788352671222435
1494862062252954959,2.5147180376484646,2.930971367767558
1494862062498121023,2.5091077600914007,2.9721177853558194
1494862062529658079,2.508375030404734,2.977440354949832
1494862062813108921,2.5007018712030833,3.0278081806113044
1494862063070332050,2.4932410051181493,3.079163462037894
1494862063087670087,2.4927342673037063,3.082647388386879
1494862063367022991,2.4828244250662723,3.1371638116724143
1494862063649871110,2.4715511060795374,3.1897640513870176
1494862063924783945,2.4620880031206633,3.240888516404654
1494862063930984973,2.461866433595166,3.242049244189922
1494862064209664106,2.4545484714804777,3.2928409245992665
1494862064470980882,2.4433807720257,3.3418290117378175
1494862064491887092,2.442462247986015,3.345770269187931
1494862064755764007,2.429358738252956,3.392292400962802
1494862064773492097,2.428462235501978,3.3954367212406362
1494862065062062978,2.409347909754582,3.444368932977577
1494862065292737007,2.394993812119961,3.4853141348275236
1494862065337914943,2.392188176894697,3.4933809590482423
1494862065617527961,2.375912571195607,3.5374430387163396
1494862065618236064,2.375871032847482,3.537555495005318
1494862065896228075,2.354102417114182,3.5815051416586554
1494862066155329942,2.337870451911851,3.614487368624337
1494862066177825927,2.336451827228699,3.6173699155430623
1494862066448772907,2.336451827228699,3.6173699155430623
1494862066712542057,2.336451827228699,3.6173699155430623
1494862066727879047,2.336451827228699,3.6173699155430623
1494862067004108905,2.336451827228699,3.6173699155430623
1494862067005161046,2.336451827228699,3.6173699155430623
1494862067257479906,2.3196555683678497,3.645152698357855
1494862067292304992,2.31732286857093,3.6490112297348043
1494862067561742067,2.300617338561683,3.673819612756056
1494862067570339918,2.300080392526039,3.6746169991847784
1494862067845885038,2.300080392526039,3.6746169991847784
1494862068119410037,2.300080392526039,3.6746169991847784
1494862068127512931,2.300080392526039,3.6746169991847784
1494862068409184932,2.300080392526039,3.6746169991847784
1494862068658561944,2.300080392526039,3.6746169991847784
1494862068691065073,2.300080392526039,3.6746169991847784
1494862068969214916,2.300080392526039,3.6746169991847784
1494862069246625900,2.300080392526039,3.6746169991847784
1494862069520875930,2.300080392526039,3.6746169991847784
1494862069529845952,2.300080392526039,3.6746169991847784
1494862069806281089,2.300080392526039,3.6746169991847784
1494862070094178915,2.300080392526039,3.6746169991847784
1494862070362490892,2.300080392526039,3.6746169991847784
1494862070374084949,2.300080392526039,3.6746169991847784
1494862070655605077,2.300080392526039,3.6746169991847784
1494862070893162012,2.300080392526039,3.6746169991847784
1494862070940583944,2.300080392526039,3.6746169991847784
1494862071201509952,2.308011427561118,3.7063538359839447
1494862071207550048,2.3083794839053837,3.707021283166453
1494862071504880905,2.3293109208632417,3.7281508324947574
1494862071767746925,2.3501680572810337,3.743642496844223
1494862071773452043,2.350694335528283,3.743855053015512
1494862072048074007,2.37671840690676,3.751961462072487
1494862072298197984,2.4013968639316783,3.755171458641778
1494862072327286958,2.4042813171588957,3.7555719149828146
1494862072606146097,2.4042813171588957,3.755571914982814
1494862072898257970,2.4235408057856067,3.7485716397827784
1494862073164952993,2.4235408057856067,3.7485716397827784
1494862073166532993,2.4235408057856067,3.748571639782779
1494862073412154912,2.4235408057856067,3.7485716397827793
1494862073441281080,2.4235408057856067,3.748571639782779
1494862073717847108,2.443801704142002,3.7507256797554596
1494862073729058027,2.444629274067811,3.750813666594877
1494862074010881900,2.444629274067811,3.750813666594877
1494862074294970035,2.444629274067811,3.750813666594877
1494862074563616037,2.444629274067811,3.750813666594877
1494862074845201969,2.444629274067811,3.7508136665948775
1494862075097877025,2.45639539330781,3.7378352686127307
1494862075137037992,2.458235892918504,3.7358170428998436
1494862075406883955,2.4672898424720096,3.709458398941668
1494862075653314113,2.48018531452826,3.6868265554926802
1494862075691428899,2.482198996835637,3.683308987898142
1494862075971896886,2.49424203041804,3.6579475211929755
1494862075973232984,2.494299982154676,3.6578257820521594
1494862076259825944,2.503632503955632,3.6174648220880012
1494862076500821113,2.504119998125249,3.5810264724304806
1494862076533972978,2.504206372817019,3.5759866691916296
1494862076817800045,2.505557290233136,3.5392006319687614
1494862076821175098,2.5055757941929113,3.538759844446753
1494862077105051040,2.5045069198711474,3.4945760047480694
1494862077361603021,2.496789618656536,3.444279616484262
1494862077368114948,2.4965944407869496,3.4429946722638682
1494862077650031089,2.4843451458053663,3.37908569464268
1494862077916430950,2.477399817585565,3.320671196012915
1494862077927218914,2.4771225118089477,3.3182871889864423
1494862078194953918,2.465783103978009,3.2519628745527753
1494862078209820985,2.4651501537803804,3.248252805676343
1494862078461033105,2.4638879193955483,3.200237184529955
1494862078492775917,2.463737779308705,3.1941333897512885
1494862078762007951,2.4697962312943584,3.153652731607576
1494862078770267963,2.4699854968902173,3.1524021065376893
1494862079049128055,2.4680916046162884,3.1053472208279254
1494862079345802068,2.4618442925748463,3.045887284736452
1494862079607187032,2.458581677776384,2.9970281730971884
1494862079857738018,2.458299491145763,2.964082182823993
1494862079887978076,2.4582651989901545,2.9600812684392586
1494862080162796020,2.4556058365409656,2.922706478661088
1494862080171041011,2.4555254457890068,2.92157669982272
1494862080447148084,2.4555254457890068,2.9215766998227197
1494862080703572988,2.4555254457890068,2.9215766998227197
1494862080728606939,2.4555254457890068,2.9215766998227193
1494862081005070924,2.4555254457890068,2.9215766998227193
1494862081259708881,2.4555254457890068,2.9215766998227193
1494862081286381006,2.4555254457890068,2.9215766998227193
1494862081563273906,2.4550039995386745,2.8862313179129138
1494862081572710990,2.4549860914814374,2.885017449519218
1494862081847481012,2.4549860914814374,2.885017449519218
1494862082119731903,2.4549860914814374,2.885017449519218
1494862082129481077,2.4549860914814374,2.885017449519218
1494862082411547899,2.4549860914814374,2.885017449519218
1494862082693506002,2.4534246208596016,2.8494897122938934
1494862082966119050,2.4534246208596016,2.849489712293893
1494862082976243972,2.4534246208596016,2.849489712293893
1494862083245148897,2.4534246208596016,2.849489712293893
1494862083261749982,2.4534246208596016,2.849489712293893
1494862083499973058,2.4534246208596016,2.849489712293893
1494862083542480945,2.4534246208596016,2.849489712293893
1494862083806690931,2.4534246208596016,2.849489712293893
1494862084062015056,2.4534246208596016,2.849489712293893
1494862084091538906,2.4534246208596016,2.849489712293893
1494862084362068891,2.4534246208596016,2.849489712293893
1494862084369605064,2.4534246208596016,2.849489712293893
1494862084645481109,2.4534246208596016,2.849489712293893
1494862084902137041,2.4534246208596016,2.849489712293893
1494862084928379058,2.4534246208596016,2.849489712293893
1494862085198301076,2.4520015509494435,2.823994654138929
1494862085214992046,2.4519129149932866,2.822406693603248
1494862085462332010,2.451912914993287,2.822406693603248
1494862085484138011,2.4519129149932866,2.822406693603248
1494862085764931917,2.4519129149932866,2.822406693603248
1494862085766222953,2.4519129149932866,2.822406693603248
1494862086046425104,2.4519129149932866,2.822406693603248
1494862086302277088,2.4519129149932866,2.822406693603248
1494862086326194047,2.4519129149932866,2.822406693603248
1494862086606396913,2.4519129149932866,2.822406693603248
1494862086860213041,2.4519129149932866,2.8224066936032477
1494862086889709949,2.4519129149932866,2.822406693603248
1494862087156722068,2.4519129149932866,2.822406693603248
1494862087166533946,2.4519129149932866,2.822406693603248
1494862087449970960,2.4519129149932866,2.822406693603248
1494862087716906070,2.4519129149932866,2.822406693603248
1494862087727345943,2.4519129149932866,2.822406693603248
1494862088011323928,2.4519129149932866,2.822406693603248
1494862088016855955,2.4519129149932866,2.822406693603248
1494862088305377960,2.4519129149932866,2.822406693603248
1494862088563560009,2.4519129149932866,2.822406693603248
1494862088565514087,2.4519129149932866,2.822406693603248
1494862088848546028,2.4519129149932866,2.822406693603248
1494862089114228963,2.4519129149932866,2.822406693603248
1494862089123183012,2.4519129149932866,2.822406693603248
1494862089411746978,2.4519129149932866,2.822406693603248
1494862089414716958,2.4519129149932866,2.822406693603248
1494862089660304069,2.4519129149932866,2.822406693603248
1494862089690253019,2.4519129149932866,2.822406693603248
1494862089966411113,2.4519129149932866,2.822406693603248
1494862090247445106,2.4519129149932866,2.822406693603248
1494862090518848896,2.4519129149932866,2.822406693603248
1494862090529831886,2.4519129149932866,2.8224066936032477
1494862090808731079,2.4519129149932866,2.8224066936032477
1494862091054785966,2.4519129149932866,2.8224066936032477
1494862091091325998,2.4519129149932866,2.8224066936032477
1494862091361682891,2.4644036665987534,2.822310816932997
1494862091376643896,2.4650748746684057,2.8221262836581302
1494862091647372961,2.4650748746684057,2.8221262836581307
1494862091906349897,2.4650748746684057,2.8221262836581307
1494862091932152986,2.4650748746684052,2.8221262836581307
1494862092213428974,2.4650748746684052,2.8221262836581307
1494862092216239929,2.4650748746684052,2.8221262836581302
1494862092446650028,2.445826794558003,2.8262989678970136
1494862092488831996,2.442274048710024,2.827017583083596
1494862092770339012,2.4169751947243348,2.834781460874476
1494862092781224966,2.4159889233709504,2.835083998130829
1494862093052939891,2.3876300987802654,2.846392311711011
1494862093300228118,2.387630098780265,2.8463923117110106
1494862093339171886,2.3876300987802646,2.8463923117110106
1494862093601866960,2.361001014043438,2.8562681987463003
1494862093619229078,2.359228806522159,2.8569252790032387
1494862093862426996,2.3592288065221587,2.8569252790032387
1494862093889575004,2.3592288065221587,2.856925279003239
1494862094161411046,2.3592288065221587,2.8569252790032387
1494862094171467065,2.3592288065221583,2.8569252790032387
1494862094448831081,2.343866102014648,2.865971281049942
1494862094715205907,2.343866102014648,2.8659712810499425
1494862094726855039,2.3438661020146485,2.865971281049942
1494862095008543968,2.3344231557363084,2.881534903002223
1494862095257734060,2.3240361016906537,2.9004845884077146
1494862095286883115,2.322806433798373,2.902710708553239
1494862095554126977,2.3093485533820157,2.927473281463988
1494862095569437026,2.308567704370381,2.9288989249404986
1494862095851474046,2.2963435192826074,2.9612019025891705
1494862095863039970,2.295835947679428,2.962536259200648
1494862096107763051,2.2909731741579953,2.990603933167087
1494862096131114959,2.2905007217471645,2.9932974215030432
1494862096412621974,2.2818814184535845,3.029897745077937
1494862096654644012,2.252320206399843,3.0725931079794764
1494862096702939033,2.2463641443717446,3.0811437892264744
1494862096968739032,2.236572319060734,3.121534209889512
1494862097249937057,2.2335335073468867,3.1659343886051134
1494862097513179063,2.2308377436866755,3.2076102604635057
1494862097539787054,2.230554306677923,3.211851159792081
1494862097813273906,2.23846065270808,3.2589305974749947
1494862098103517055,2.241572184663937,3.3070968422297695
1494862098349216938,2.2425698479693645,3.3500661083569505
1494862098370579957,2.24265216195661,3.3538246287770934
1494862098651276111,2.2371622590400113,3.3947486806504843
1494862098666738033,2.236853161556877,3.397020202742774
1494862098898121118,2.2399312416029935,3.4347780101492966
1494862098928186893,2.2403243082606354,3.439710676345554
1494862099193272113,2.2356389345497036,3.478437733549166
1494862099209003925,2.235353355218741,3.480751393163551
1494862099456123113,2.232634550427735,3.520458257310165
1494862099490173101,2.2322433696416835,3.525960844240534
1494862099758908987,2.227159286784547,3.5661859417663573
1494862099770792007,2.2269314273334966,3.567977368856047
1494862100049979925,2.222478932643838,3.6104945352061835
1494862100317826032,2.2208730247189856,3.6536235449602184
1494862100328443050,2.2208110870105733,3.655345424293354
1494862100596599102,2.2098867106218907,3.697688926592167
1494862100612843036,2.2092194861838195,3.7002725030350407
1494862100859065055,2.202785963089428,3.741461642630522
1494862100892260074,2.2019126728083678,3.7470480777366815
1494862101168097019,2.189596440048053,3.792218492150922
1494862101451016902,2.1842115503884467,3.8388305907023454
1494862101719868898,2.1749418972068706,3.879675348220909
1494862101737896919,2.1743136479814464,3.8824331134786867
1494862102008826017,2.1624753635149134,3.9288718572858277
1494862102256889104,2.147614318901716,3.9675362313764655
1494862102289041042,2.145670670189393,3.97257524948371
1494862102569799900,2.1435202435206335,4.012792078841212
1494862102849720001,2.1320951497497123,4.050388738559189
1494862103104418992,2.1280450006144678,4.080599238346802
1494862103131280899,2.127661419675335,4.083811429436111
1494862103406642913,2.127661419675335,4.083811429436112
1494862103701137065,2.123777800719357,4.119785055906721
1494862103967418909,2.1340769810911304,4.149748070380931
1494862103976300001,2.13434165517119,4.150778582282423
1494862104256409883,2.143238542899401,4.176292190906814
1494862104509272098,2.1432385428994016,4.176292190906814
1494862104533745050,2.1432385428994016,4.176292190906814
1494862104800924062,2.1432385428994016,4.176292190906814
1494862104811832904,2.143238542899401,4.176292190906814
1494862105057195901,2.143238542899401,4.176292190906814
1494862105087074041,2.143238542899401,4.176292190906814
1494862105360156059,2.143238542899401,4.176292190906814
1494862105367785930,2.1432385428994016,4.176292190906814
1494862105648044109,2.143238542899401,4.176292190906814
1494862105862883090,2.1432385428994007,4.176292190906814
1494862105990492105,2.1432385428994007,4.176292190906814
1494862106199322938,2.143238542899401,4.176292190906814
1494862106206912040,2.143238542899401,4.176292190906814
1494862106607899904,2.143238542899401,4.176292190906814
1494862106730954885,2.143238542899401,4.176292190906814
1494862106776897907,2.143238542899401,4.176292190906814
1494862107047564983,2.143238542899401,4.176292190906814
1494862107319807052,2.143238542899401,4.176292190906814
1494862107329900026,2.143238542899401,4.176292190906814
1494862107606244087,2.143238542899401,4.176292190906814
1494862107900154113,2.143238542899401,4.176292190906814
1494862108161439895,2.143238542899401,4.176292190906814
1494862108163899898,2.143238542899401,4.176292190906814
1494862108446722030,2.143238542899401,4.176292190906814
1494862108720590114,2.143238542899401,4.176292190906814
1494862108728019952,2.143238542899401,4.176292190906814
1494862109009257078,2.143238542899401,4.176292190906814
1494862109257044076,2.143238542899401,4.176292190906814
1494862109276885032,2.143238542899401,4.176292190906814
1494862109286158084,2.143238542899401,4.176292190906814
1494862109559237003,2.143238542899401,4.176292190906814
1494862109568162918,2.143238542899401,4.176292190906814
1494862109838067054,2.143238542899401,4.176292190906814
1494862109858573913,2.143238542899401,4.176292190906814
1494862110096982002,2.143238542899401,4.176292190906814
1494862110125408887,2.143238542899401,4.176292190906814
1494862110404139995,2.143238542899401,4.176292190906814
1494862110667778015,2.143238542899401,4.176292190906814
1494862110683600902,2.143238542899401,4.176292190906814
1494862110966917037,2.143238542899401,4.176292190906814
1494862111247009992,2.143238542899401,4.176292190906814
1494862111494942903,2.143238542899401,4.176292190906814
1494862111523358106,2.143238542899401,4.176292190906814
1494862111806761026,2.143238542899401,4.176292190906814
1494862112056792020,2.143238542899401,4.176292190906814
1494862112088618040,2.143238542899401,4.176292190906814
1494862112367738008,2.143238542899401,4.176292190906814
1494862112368093013,2.143238542899401,4.176292190906814
1494862112655334949,2.143238542899401,4.176292190906814
1494862112891371965,2.143238542899401,4.176292190906814
1494862112933774948,2.143238542899401,4.176292190906814
1494862113201917886,2.143238542899401,4.176292190906814
1494862113218763113,2.143238542899401,4.176292190906814
1494862113514276981,2.143238542899401,4.176292190906814
1494862113771200895,2.143238542899401,4.176292190906814
