1498847104,0.41816666666666685,0.0,0.032166666666666684,0.0
1498847105,0.45033333333333353,0.0,0.032166666666666684,0.0
1498847106,0.4825000000000002,0.0,0.032166666666666684,0.0
1498847107,0.5146666666666669,0.0,0.032166666666666684,0.0
1498847108,0.5468333333333336,0.0,0.032166666666666684,0.0
1498847109,0.5790000000000003,0.0,0.032166666666666684,0.0
1498847110,0.07633333333333359,0.0,-0.5026666666666667,0.0
1498847111,0.07633333333333359,0.0,0.0,0.0
1498847112,1.044166666666667,0.0,0.9678333333333333,0.0
1498847113,0.5820000000000001,0.0,-0.46216666666666684,0.0
1498847114,0.44683333333333347,0.0,-0.1351666666666666,0.0
1498847115,0.331666666666667,0.0,-0.1151666666666665,0.0
1498847116,0.7305000000000003,0.0,0.39883333333333326,0.0
1498847117,-0.10616666666666652,0.0,-0.8366666666666668,0.0
1498847118,0.40466666666666684,0.0,0.5108333333333334,0.0
1498847119,-0.42349999999999977,0.0,-0.8281666666666666,0.0
1498847120,-0.21266666666666645,0.0,0.21083333333333332,0.0
1498847121,0.25166666666666687,0.0,0.4643333333333333,0.0
1498847122,-0.12649999999999983,0.0,-0.3781666666666667,0.0
1498847123,0.4413333333333336,0.0,0.5678333333333334,0.0
1498847124,0.924166666666667,0.0,0.4828333333333334,0.0
1498847125,1.3265000000000005,0.0,0.40233333333333343,0.0
1498847126,1.3586666666666671,0.0,0.03216666666666668,0.0
1498847127,1.7880000000000007,0.0,0.42933333333333346,0.0
1498847128,1.3553333333333342,0.0,-0.43266666666666664,0.0
1498847129,0.9151666666666676,0.0,-0.44016666666666654,0.0
1498847130,0.0685000000000009,0.0,-0.8466666666666667,0.0
1498847131,-0.2906666666666657,0.0,-0.3591666666666666,0.0
1498847132,-0.2584999999999989,0.0,0.03216666666666679,0.0
1498847133,-0.05466666666666545,0.0,0.20383333333333345,0.0
1498847134,-0.8688333333333322,0.0,-0.8141666666666668,0.0
1498847135,-1.1704999999999988,0.0,-0.30166666666666664,0.0
1498847136,-1.7871666666666652,0.0,-0.6166666666666665,0.0
1498847137,-2.4883333333333315,0.0,-0.7011666666666665,0.0
1498847138,-2.4883333333333315,0.0,0.0,0.0
1498847139,-3.174999999999998,0.0,-0.6866666666666665,0.0
1498847140,-3.7196666666666647,0.0,-0.5446666666666666,0.0
1498847141,-3.8548333333333313,0.0,-0.13516666666666666,0.0
1498847142,-3.635499999999998,0.0,0.21933333333333327,0.0
1498847143,-3.946666666666665,0.0,-0.3111666666666667,0.0
1498847144,-3.4283333333333315,0.0,0.5183333333333334,0.0
1498847145,-3.4283333333333315,0.0,0.0,0.0
1498847146,-3.227999999999998,0.0,0.2003333333333333,0.0
1498847147,-3.056666666666665,0.0,0.17133333333333334,0.0
1498847148,-3.2098333333333313,0.0,-0.15316666666666662,0.0
1498847149,-3.713499999999998,0.0,-0.5036666666666666,0.0
1498847150,-4.4531666666666645,0.0,-0.7396666666666667,0.0
1498847151,-5.031333333333331,0.0,-0.5781666666666665,0.0
1498847152,-4.454499999999998,0.0,0.5768333333333333,0.0
1498847153,-3.6961666666666644,0.0,0.7583333333333333,0.0
1498847154,-3.867833333333331,0.0,-0.17166666666666663,0.0
1498847155,-4.067499999999997,0.0,-0.19966666666666655,0.0
1498847156,-4.263166666666664,0.0,-0.19566666666666666,0.0
1498847157,-4.263166666666664,0.0,0.0,0.0
1498847158,-4.343333333333331,0.0,-0.08016666666666664,0.0
1498847159,-4.343333333333331,0.0,0.0,0.0
