1498846804,-0.00028375,3e-05,-0.000405
1498846804,-0.00028,2.5625e-05,-0.000416875
1498846804,-0.0002875,4.375e-05,-0.0004125
1498846804,-0.00028375,3e-05,-0.000420625
1498846804,-0.00028375,2.25e-05,-0.00040875
1498846804,-0.000275625,3e-05,-0.000431875
1498846804,-0.00028,5.0625e-05,-0.000416875
1498846804,-0.00028375,2.5625e-05,-0.000416875
1498846804,-0.000290625,3.25e-05,-0.000420625
1498846804,-0.0002875,1.875e-05,-0.0004125
1498846804,-0.00029375,3.25e-05,-0.000416875
1498846804,-0.0002875,3e-05,-0.00042375
1498846804,-0.000275625,2.5625e-05,-0.000416875
1498846804,-0.00028,2.5625e-05,-0.000415625
1498846804,-0.000290625,3.6875e-05,-0.0004125
1498846805,-0.0002875,2.25e-05,-0.000420625
1498846805,-0.00028375,3.25e-05,-0.0004125
1498846805,-0.00028375,3e-05,-0.0004125
1498846805,-0.00026875,3.6875e-05,-0.000420625
1498846805,-0.0002875,4.0625e-05,-0.000415625
1498846805,-0.00028,3.25e-05,-0.0004125
1498846805,-0.00028375,4.75e-05,-0.000420625
1498846805,-0.0002875,3e-05,-0.0004125
1498846805,-0.000290625,3e-05,-0.000420625
1498846805,-0.00028,3.6875e-05,-0.00040875
1498846805,-0.00028,3.6875e-05,-0.000416875
1498846805,-0.000290625,4.0625e-05,-0.0004125
1498846805,-0.000290625,4.0625e-05,-0.000400625
1498846805,-0.0002875,3e-05,-0.00040875
1498846805,-0.0002875,3.6875e-05,-0.000416875
1498846805,-0.000290625,3.25e-05,-0.000405
1498846805,-0.00028375,3.25e-05,-0.000416875
1498846805,-0.0002725,3.25e-05,-0.000420625
1498846805,-0.00028,4.5e-05,-0.000410625
1498846805,-0.0002875,3.6875e-05,-0.000405
1498846806,-0.000295,3.6875e-05,-0.00040375
1498846806,-0.00028875,4.0625e-05,-0.000411875
1498846806,-0.00028875,3.6875e-05,-0.0004025
1498846806,-0.00028875,4.0625e-05,-0.0004025
1498846806,-0.000276875,3.25e-05,-0.000395
1498846806,-0.00027375,3.6875e-05,-0.0004025
1498846806,-0.000285,3e-05,-0.0004025
1498846806,-0.000295,2.25e-05,-0.000390625
1498846806,-0.00027375,3.25e-05,-0.00039875
1498846806,-0.000295,2.25e-05,-0.0004025
1498846806,-0.000285,2.25e-05,-0.000406875
1498846806,-0.00028875,1.0625e-05,-0.00039875
1498846806,-0.00028875,2.25e-05,-0.000395
1498846806,-0.000295,1.875e-05,-0.000395
1498846806,-0.00028875,1.875e-05,-0.0004025
1498846806,-0.000285,1.875e-05,-0.0004025
1498846806,-0.00028875,1.875e-05,-0.00039875
1498846806,-0.00029875,1.875e-05,-0.0004025
1498846806,-0.000295,1.5e-05,-0.00039875
1498846806,-0.00029875,1.5e-05,-0.000406875
1498846807,-0.000291875,1.5e-05,-0.0004025
1498846807,-0.000291875,1.5e-05,-0.0004025
1498846807,-0.00028875,5e-06,-0.000410625
1498846807,-0.00028875,1.5e-05,-0.000410625
1498846807,-0.00028875,3e-05,-0.00039875
1498846807,-0.00028875,1.0625e-05,-0.00041
1498846807,-0.00028875,7.5e-06,-0.0004025
1498846807,-0.000291875,1.0625e-05,-0.0004175
1498846807,-0.00028875,1.875e-05,-0.0004175
1498846807,-0.00028875,1.875e-05,-0.0004175
1498846807,-0.000280625,1.0625e-05,-0.000406875
1498846807,-0.00028875,2.5625e-05,-0.000426875
1498846807,-0.00028875,2.5625e-05,-0.000426875
1498846807,-0.000291875,2.25e-05,-0.0004225
1498846807,-0.00028875,1.5e-05,-0.000410625
1498846807,-0.000295,1.875e-05,-0.00043
1498846807,-0.000280625,2.25e-05,-0.0004175
1498846807,-0.000291875,1.875e-05,-0.000415
1498846807,-0.00028875,1.5e-05,-0.0004175
1498846807,-0.000285,1.0625e-05,-0.0004225
1498846808,-0.000285,1.0625e-05,-0.0004225
1498846808,-0.000280625,1.5e-05,-0.00043
1498846808,-0.000285,1.5e-05,-0.000426875
1498846808,-0.000291875,7.5e-06,-0.000425625
1498846808,-0.00028875,1.0625e-05,-0.00043375
1498846808,-0.000291875,5e-06,-0.0004375
1498846808,-0.000291875,5e-06,-0.0004375
1498846808,-0.000285,5e-06,-0.0004375
1498846808,-0.000285,7.5e-06,-0.00043375
1498846808,-0.000295,1.5e-05,-0.000441875
1498846808,-0.00028875,1.5e-05,-0.000441875
1498846808,-0.000291875,1.0625e-05,-0.000445625
1498846808,-0.000295,-2.5e-06,-0.00045375
1498846808,-0.00029875,6.25e-07,-0.00045
1498846808,-0.000295,6.25e-07,-0.00045
1498846808,-0.00029875,5e-06,-0.000461875
1498846808,-0.000295,6.25e-07,-0.000461875
1498846808,-0.000295,6.25e-07,-0.000461875
1498846808,-0.00029875,5e-06,-0.0004525
1498846808,-0.000295,6.25e-07,-0.000465
1498846809,-0.000295,6.25e-07,-0.000465
1498846809,-0.000306875,5e-06,-0.000465
1498846809,-0.00029875,7.5e-06,-0.0004725
1498846809,-0.000306875,6.25e-07,-0.000476875
1498846809,-0.00029875,-2.5e-06,-0.00046875
1498846809,-0.000295,6.25e-07,-0.00048375
1498846809,-0.000295,1.0625e-05,-0.00048375
1498846809,-0.0003025,6.25e-07,-0.00048
1498846809,-0.0003025,6.25e-07,-0.00048
1498846809,-0.000306875,1.0625e-05,-0.00048375
1498846809,-0.00031375,7.5e-06,-0.000491875
1498846809,-0.00031375,7.5e-06,-0.000491875
1498846809,-0.00031,7.5e-06,-0.0004875
1498846809,-0.00031375,7.5e-06,-0.00050375
1498846809,-0.000306875,6.25e-07,-0.0005
1498846809,-0.00031375,1.0625e-05,-0.00049875
1498846809,-0.000320625,1.0625e-05,-0.000491875
1498846809,-0.00031,2.5625e-05,-0.000510625
1498846809,-0.00031375,1.875e-05,-0.00050375
1498846809,-0.00031375,2.5625e-05,-0.00049875
1498846810,-0.000320625,2.5625e-05,-0.00050375
1498846810,-0.0003275,2.25e-05,-0.000515625
1498846810,-0.000320625,4.0625e-05,-0.0005075
1498846810,-0.00032375,4.0625e-05,-0.00052375
1498846810,-0.000326875,5.5e-05,-0.000511875
1498846810,-0.000326875,5.5e-05,-0.000511875
1498846810,-0.000326875,4.375e-05,-0.00050875
1498846810,-0.000326875,4.0625e-05,-0.000525
1498846810,-0.00033375,5.0625e-05,-0.0005175
1498846810,-0.000326875,5.0625e-05,-0.00050875
1498846810,-0.000326875,5.5e-05,-0.00050875
1498846810,-0.0003225,5.5e-05,-0.000525
1498846810,-0.00032,4.75e-05,-0.000501875
1498846810,-0.00033375,5.0625e-05,-0.00050875
1498846810,-0.000326875,5.75e-05,-0.00050875
1498846810,-0.0003225,5.5e-05,-0.000501875
1498846810,-0.000326875,5.0625e-05,-0.000505625
1498846810,-0.000326875,6.5625e-05,-0.000505625
1498846810,-0.000330625,6.1875e-05,-0.000501875
1498846810,-0.000326875,8e-05,-0.000500625
1498846811,-0.000326875,6.1875e-05,-0.000505625
1498846811,-0.000326875,7.5625e-05,-0.00049375
1498846811,-0.0003225,5.6875e-05,-0.000501875
1498846811,-0.000340625,4.75e-05,-0.000501875
1498846811,-0.000326875,6.5625e-05,-0.0005025
1498846811,-0.0003225,5.5e-05,-0.0004975
1498846811,-0.000326875,7e-05,-0.00049375
1498846811,-0.000326875,5e-05,-0.0004975
1498846811,-0.0003225,5.6875e-05,-0.000505625
1498846811,-0.000326875,5.75e-05,-0.00049
1498846811,-0.000330625,7.25e-05,-0.000485625
1498846811,-0.000330625,5.375e-05,-0.0004975
1498846811,-0.000330625,4.6875e-05,-0.0004975
1498846811,-0.0003225,5.75e-05,-0.0004975
1498846811,-0.0003225,6.1875e-05,-0.000505625
1498846811,-0.00032,5.75e-05,-0.000505625
1498846811,-0.00032,5.5e-05,-0.00049375
1498846811,-0.000326875,8e-05,-0.0004975
1498846811,-0.000330625,5.5e-05,-0.00049375
1498846811,-0.000326875,6.5625e-05,-0.000501875
1498846812,-0.000330625,7e-05,-0.00049
1498846812,-0.00033375,6.5625e-05,-0.00049375
1498846812,-0.0003225,5.75e-05,-0.00050875
1498846812,-0.000315625,7e-05,-0.0004975
1498846812,-0.00032,8.25e-05,-0.00049375
1498846812,-0.000315625,6.875e-05,-0.0004975
1498846812,-0.000315625,6.5e-05,-0.0004975
1498846812,-0.0003225,7.5e-05,-0.00049375
1498846812,-0.000326875,7.1875e-05,-0.000501875
1498846812,-0.0003225,7.1875e-05,-0.0004975
1498846812,-0.0003125,7.875e-05,-0.000505625
1498846812,-0.000315625,8.25e-05,-0.000501875
1498846812,-0.00030875,6.875e-05,-0.00050875
1498846812,-0.000305625,7.1875e-05,-0.000501875
1498846812,-0.00030875,9e-05,-0.000505625
1498846812,-0.00030875,6.5e-05,-0.0004975
1498846812,-0.00030875,7.1875e-05,-0.00049375
1498846812,-0.00031375,7.1875e-05,-0.0004975
1498846812,-0.00031375,7.5e-05,-0.00049
1498846812,-0.0003025,6.875e-05,-0.0004975
1498846813,-0.00031,7.5e-05,-0.0004975
1498846813,-0.000320625,6.875e-05,-0.00049375
1498846813,-0.000306875,7.875e-05,-0.000505625
1498846813,-0.000291875,7.1875e-05,-0.000485625
1498846813,-0.0003025,7.5e-05,-0.0005125
1498846813,-0.0003025,6.875e-05,-0.000501875
1498846813,-0.00029875,7.1875e-05,-0.000505625
1498846813,-0.0003025,8.25e-05,-0.000505625
1498846813,-0.000306875,8.25e-05,-0.000501875
1498846813,-0.000295,8.25e-05,-0.000501875
1498846813,-0.00029875,7.875e-05,-0.000501875
1498846813,-0.00029875,7.875e-05,-0.000505625
1498846813,-0.000291875,8.25e-05,-0.000501875
1498846813,-0.0003025,8.6875e-05,-0.000500625
1498846813,-0.000295,8.6875e-05,-0.00049375
1498846813,-0.000285,8.25e-05,-0.00050875
1498846813,-0.00028875,8.6875e-05,-0.000501875
1498846813,-0.000280625,7.875e-05,-0.000505625
1498846813,-0.000276875,8.6875e-05,-0.000501875
1498846813,-0.000291875,8.6875e-05,-0.0004975
1498846814,-0.000280625,9.375e-05,-0.00050875
1498846814,-0.000280625,9.375e-05,-0.000501875
1498846814,-0.000276875,0.000100625,-0.000505625
1498846814,-0.000280625,9e-05,-0.000505625
1498846814,-0.000280625,9.375e-05,-0.00050875
1498846814,-0.000276875,8.25e-05,-0.00049
1498846814,-0.00027375,9.6875e-05,-0.0005125
1498846814,-0.0002625,9.6875e-05,-0.0004975
1498846814,-0.00027375,9.375e-05,-0.000521875
1498846814,-0.00027375,9.375e-05,-0.000506875
1498846814,-0.00027,9e-05,-0.000506875
1498846814,-0.000266875,0.000100625,-0.00051
1498846814,-0.000251875,0.000100625,-0.000506875
1498846814,-0.0002625,9.6875e-05,-0.0005025
1498846814,-0.00027,9.6875e-05,-0.00051
1498846814,-0.000255625,9.6875e-05,-0.0005025
1498846814,-0.000255625,0.000105,-0.00049875
1498846814,-0.000255625,9.375e-05,-0.000506875
1498846814,-0.000255625,0.0001075,-0.00051
1498846814,-0.00025875,0.000100625,-0.0005025
1498846815,-0.000251875,0.000105,-0.000501875
1498846815,-0.000255625,9.6875e-05,-0.00051375
1498846815,-0.000255625,9.6875e-05,-0.000506875
1498846815,-0.00024875,0.000121875,-0.0005025
1498846815,-0.000255625,0.000111875,-0.00049375
1498846815,-0.000251875,0.0001075,-0.0004975
1498846815,-0.000245,0.000105,-0.0004975
1498846815,-0.000245,0.0001075,-0.00050875
1498846815,-0.000245,0.0001075,-0.0004975
1498846815,-0.0002375,0.0001075,-0.00049375
1498846815,-0.00024875,0.0001075,-0.000505625
1498846815,-0.0002375,0.0001075,-0.00049375
1498846815,-0.00023,0.000121875,-0.00050875
1498846815,-0.00023375,0.000111875,-0.00049
1498846815,-0.00023,0.000115,-0.000485625
1498846815,-0.00023,0.00011875,-0.00049375
1498846815,-0.00023,0.000125625,-0.000495
1498846815,-0.000226875,0.00011875,-0.00049875
1498846815,-0.00023,0.000125625,-0.0004825
1498846815,-0.00022375,0.00011875,-0.00049875
1498846816,-0.00023,0.000125625,-0.000490625
1498846816,-0.00023,0.00011875,-0.000490625
1498846816,-0.000226875,0.000125625,-0.000486875
1498846816,-0.00022,0.000121875,-0.000471875
1498846816,-0.00023,0.000121875,-0.000470625
1498846816,-0.000226875,0.000125625,-0.0004825
1498846816,-0.0002375,0.000125625,-0.0004825
1498846816,-0.000226875,0.00013375,-0.0004825
1498846816,-0.000226875,0.000136875,-0.00047875
1498846816,-0.000215625,0.000125625,-0.0004825
1498846816,-0.00023375,0.00013,-0.00046375
1498846816,-0.00022,0.00013375,-0.00046375
1498846816,-0.000211875,0.00013,-0.000471875
1498846816,-0.0002275,0.00014,-0.00047
1498846816,-0.000216875,0.00013375,-0.00046
1498846816,-0.000225,0.000136875,-0.00046
1498846816,-0.000216875,0.000136875,-0.00046375
1498846816,-0.00021,0.000136875,-0.0004425
1498846816,-0.000225,0.000136875,-0.0004625
1498846816,-0.0002275,0.00013,-0.00045875
1498846817,-0.00021,0.000136875,-0.000446875
1498846817,-0.000220625,0.00013,-0.0004425
1498846817,-0.00021,0.00013,-0.000450625
1498846817,-0.0002125,0.000121875,-0.0004425
1498846817,-0.00021,0.000121875,-0.000435
1498846817,-0.000216875,0.00014,-0.000430625
1498846817,-0.000205625,0.000125625,-0.000435
1498846817,-0.0002125,0.00013375,-0.00043875
1498846817,-0.000205625,0.00013375,-0.000435
1498846817,-0.00021,0.00013,-0.000435
1498846817,-0.0002025,0.000125625,-0.000446875
1498846817,-0.000205625,0.000121875,-0.00042375
1498846817,-0.000195625,0.000125625,-0.00042
1498846817,-0.00019875,0.000115,-0.00042875
1498846817,-0.00019875,0.00011875,-0.000416875
1498846817,-0.000185,0.000115,-0.00042
1498846817,-0.000191875,0.000125625,-0.0004125
1498846817,-0.000191875,0.00011875,-0.000416875
1498846817,-0.000185,0.00011875,-0.000416875
1498846817,-0.000185,0.00011875,-0.00042
1498846818,-0.000180625,0.000121875,-0.00042
1498846818,-0.000180625,0.000111875,-0.0004125
1498846818,-0.000180625,0.0001225,-0.00042
1498846818,-0.00017,0.0001125,-0.000416875
1498846818,-0.00017375,0.00012,-0.000405
1498846818,-0.00017,0.00010875,-0.000405
1498846818,-0.00017375,0.00012,-0.00040875
1498846818,-0.0001625,0.00010875,-0.000405
1498846818,-0.00017,0.00010875,-0.000405
1498846818,-0.00017,0.00010875,-0.000405
1498846818,-0.0001625,0.00010875,-0.000400625
1498846818,-0.000165625,0.00010875,-0.000400625
1498846818,-0.0001625,0.000101875,-0.000400625
1498846818,-0.0001625,0.00010875,-0.00040875
1498846818,-0.000165625,0.000101875,-0.000396875
1498846818,-0.0001625,9.5e-05,-0.0003925
1498846818,-0.000151875,9.5e-05,-0.000400625
1498846818,-0.000165625,9.75e-05,-0.000405625
1498846818,-0.0001625,9.75e-05,-0.00039
1498846818,-0.000151875,9.5e-05,-0.000401875
1498846819,-0.000155625,9.0625e-05,-0.00041
1498846819,-0.00016,8.75e-05,-0.00039375
1498846819,-0.00016,8.75e-05,-0.00039375
1498846819,-0.000145,9.5e-05,-0.0003975
1498846819,-0.00016,8e-05,-0.00039
1498846819,-0.00016,8e-05,-0.00039
1498846819,-0.000155625,8.375e-05,-0.00039375
1498846819,-0.00016,8e-05,-0.000401875
1498846819,-0.0001475,9.0625e-05,-0.000395625
1498846819,-0.000155625,8.375e-05,-0.0003775
1498846819,-0.000155625,8.375e-05,-0.0003775
1498846819,-0.000155625,7.5625e-05,-0.000386875
1498846819,-0.0001475,7e-05,-0.00038375
1498846819,-0.000151875,8e-05,-0.0003825
1498846819,-0.000151875,8.375e-05,-0.000390625
1498846819,-0.000151875,8e-05,-0.000390625
1498846819,-0.000140625,7.25e-05,-0.00038
1498846819,-0.0001375,7.25e-05,-0.00038375
1498846819,-0.000151875,7.25e-05,-0.00038375
1498846819,-0.0001475,7e-05,-0.000386875
1498846820,-0.000151875,7.5625e-05,-0.000386875
1498846820,-0.000151875,7.5625e-05,-0.000386875
1498846820,-0.000140625,7e-05,-0.00037875
1498846820,-0.00013375,7.25e-05,-0.0003825
1498846820,-0.00013375,7.25e-05,-0.0003825
1498846820,-0.000140625,7.5625e-05,-0.0003825
1498846820,-0.00013375,7.25e-05,-0.0003825
1498846820,-0.0001375,7.25e-05,-0.000375
1498846820,-0.00013375,7.25e-05,-0.000385625
1498846820,-0.00013375,7.25e-05,-0.0003825
1498846820,-0.00013375,6.5625e-05,-0.000381875
1498846820,-0.0001375,6.5625e-05,-0.000375
1498846820,-0.0001375,6.1875e-05,-0.000370625
1498846820,-0.0001375,6.1875e-05,-0.000370625
1498846820,-0.00013375,6.1875e-05,-0.0003825
1498846820,-0.000130625,6.5625e-05,-0.0003775
1498846820,-0.00013375,6.1875e-05,-0.0003775
1498846820,-0.000126875,5.75e-05,-0.000381875
1498846820,-0.00013375,6.5625e-05,-0.00037
1498846820,-0.00013375,7.25e-05,-0.00037375
1498846821,-0.000130625,6.5625e-05,-0.00037
1498846821,-0.00013375,5.75e-05,-0.000365
1498846821,-0.0001375,5.75e-05,-0.00037
1498846821,-0.0001375,5.75e-05,-0.0003775
1498846821,-0.00013375,6.1875e-05,-0.000370625
1498846821,-0.00013375,5.0625e-05,-0.000375
1498846821,-0.0001375,5.0625e-05,-0.0003775
1498846821,-0.0001375,5.5e-05,-0.000375
1498846821,-0.000145,4.75e-05,-0.000370625
1498846821,-0.000145,4.0625e-05,-0.000375
1498846821,-0.0001375,4.75e-05,-0.000385625
1498846821,-0.00013,4.75e-05,-0.0003775
1498846821,-0.00013375,5.0625e-05,-0.000385625
1498846821,-0.000145,4.375e-05,-0.000385625
1498846821,-0.000145,4.75e-05,-0.0003825
1498846821,-0.000145,4.0625e-05,-0.000385625
1498846821,-0.00013375,5.5e-05,-0.000375
1498846821,-0.000140625,4.0625e-05,-0.000375
1498846821,-0.000140625,4.375e-05,-0.0003775
1498846821,-0.0001375,3.6875e-05,-0.000381875
1498846822,-0.0001375,3.6875e-05,-0.000381875
1498846822,-0.000145,3e-05,-0.00039
1498846822,-0.000151875,4.0625e-05,-0.000385625
1498846822,-0.000140625,3e-05,-0.000375
1498846822,-0.0001475,3.6875e-05,-0.000375
1498846822,-0.0001475,3e-05,-0.0003775
1498846822,-0.0001475,3e-05,-0.0003825
1498846822,-0.000145,3e-05,-0.00039375
1498846822,-0.0001475,3e-05,-0.0003775
1498846822,-0.000140625,3.25e-05,-0.00039
1498846822,-0.000151875,3.6875e-05,-0.000375
1498846822,-0.000151875,2.5625e-05,-0.000370625
1498846822,-0.00016,3.25e-05,-0.0003775
1498846822,-0.000145,2.5625e-05,-0.000381875
1498846822,-0.000145,3.6875e-05,-0.0003775
1498846822,-0.0001475,4.0625e-05,-0.000385625
1498846822,-0.0001475,3e-05,-0.000385625
1498846822,-0.000145,4.0625e-05,-0.000375
1498846822,-0.0001475,3e-05,-0.000375
1498846822,-0.0001625,3.6875e-05,-0.000381875
1498846823,-0.000151875,4.375e-05,-0.00039
1498846823,-0.0001625,3.6875e-05,-0.000385625
1498846823,-0.0001475,3.25e-05,-0.0003825
1498846823,-0.000155625,4.0625e-05,-0.0003775
1498846823,-0.000151875,3.6875e-05,-0.000381875
1498846823,-0.00016,4.75e-05,-0.000381875
1498846823,-0.0001625,4.0625e-05,-0.00039375
1498846823,-0.0001625,2.5625e-05,-0.000385625
1498846823,-0.00016,4.0625e-05,-0.000385625
1498846823,-0.0001625,3.6875e-05,-0.000385625
1498846823,-0.00017,2.5625e-05,-0.000375
1498846823,-0.00017,2.5625e-05,-0.000381875
1498846823,-0.00017,3.25e-05,-0.000381875
1498846823,-0.000165625,1.875e-05,-0.000375
1498846823,-0.000165625,2.25e-05,-0.00039
1498846823,-0.0001625,3e-05,-0.000375
1498846823,-0.00017375,2.5625e-05,-0.00039375
1498846823,-0.00016,3e-05,-0.000381875
1498846823,-0.0001625,2.25e-05,-0.00039
1498846823,-0.00017,1.875e-05,-0.0003775
1498846824,-0.00017,3e-05,-0.00039
1498846824,-0.00017375,2.5625e-05,-0.00039
1498846824,-0.0001775,3.25e-05,-0.0003825
1498846824,-0.0001625,1.875e-05,-0.00039
1498846824,-0.000165625,1.875e-05,-0.000381875
1498846824,-0.000180625,1.875e-05,-0.000385625
1498846824,-0.00017375,1.5e-05,-0.000385625
1498846824,-0.000191875,1.875e-05,-0.000385625
1498846824,-0.000190625,1.875e-05,-0.000370625
1498846824,-0.00018375,1.5e-05,-0.000401875
1498846824,-0.000176875,2.25e-05,-0.000385625
1498846824,-0.00018,1.875e-05,-0.000395
1498846824,-0.00019375,1.5e-05,-0.0003825
1498846824,-0.000190625,2.25e-05,-0.000385625
1498846824,-0.00018375,2.5625e-05,-0.000385625
1498846824,-0.000186875,2.25e-05,-0.00039
1498846824,-0.00020875,2.5625e-05,-0.000375
1498846824,-0.00019375,3e-05,-0.0003975
1498846824,-0.000201875,2.5625e-05,-0.0003825
1498846824,-0.000190625,2.25e-05,-0.00039
1498846825,-0.000201875,2.5625e-05,-0.000395
1498846825,-0.000205,2.5625e-05,-0.0003825
1498846825,-0.000205,2.25e-05,-0.00039
1498846825,-0.000211875,2.5625e-05,-0.00039375
1498846825,-0.00020875,2.5625e-05,-0.00039
1498846825,-0.00022,2.5625e-05,-0.000385625
1498846825,-0.000215625,3e-05,-0.000385625
1498846825,-0.000215625,2.25e-05,-0.00039375
1498846825,-0.000211875,3e-05,-0.000385625
1498846825,-0.000226875,2.5625e-05,-0.00039
1498846825,-0.000215625,2.5625e-05,-0.000405625
1498846825,-0.00022,2.25e-05,-0.00039
1498846825,-0.000215625,2.25e-05,-0.000385625
1498846825,-0.00022,2.25e-05,-0.000385625
1498846825,-0.000226875,3e-05,-0.00039
1498846825,-0.000226875,3e-05,-0.000381875
1498846825,-0.000226875,3.6875e-05,-0.0003975
1498846825,-0.0002375,2.5625e-05,-0.00039
1498846825,-0.0002375,3.25e-05,-0.000381875
1498846825,-0.000241875,3.25e-05,-0.000401875
1498846826,-0.00024875,2.5625e-05,-0.0003975
1498846826,-0.000245,3.6875e-05,-0.00039
1498846826,-0.00024875,2.5625e-05,-0.00039
1498846826,-0.000251875,3.25e-05,-0.0003775
1498846826,-0.00024875,3.25e-05,-0.0003975
1498846826,-0.000251875,3.25e-05,-0.0003975
1498846826,-0.00025875,4.0625e-05,-0.000381875
1498846826,-0.000255625,4.0625e-05,-0.00039
1498846826,-0.000255625,3e-05,-0.000381875
1498846826,-0.0002625,4.0625e-05,-0.000385625
1498846826,-0.00027,4.375e-05,-0.0003975
1498846826,-0.000266875,4.375e-05,-0.0003825
1498846826,-0.000266875,3.6875e-05,-0.00039
1498846826,-0.00027,4.375e-05,-0.00039
1498846826,-0.000285,4.75e-05,-0.000385625
1498846826,-0.000276875,4.375e-05,-0.000386875
1498846826,-0.00028875,4.75e-05,-0.000395
1498846826,-0.000285,5.0625e-05,-0.00038375
1498846826,-0.00028875,4.75e-05,-0.000386875
1498846826,-0.00028,5.75e-05,-0.00037875
1498846827,-0.0002875,5.5e-05,-0.0003825
1498846827,-0.00028,5.75e-05,-0.00037875
1498846827,-0.000275625,5.5e-05,-0.000390625
1498846827,-0.00028375,4.0625e-05,-0.000375625
1498846827,-0.000290625,5.0625e-05,-0.0003825
1498846827,-0.00028,4.75e-05,-0.00037875
1498846827,-0.000275625,5.5e-05,-0.00037875
1498846827,-0.000301875,5.0625e-05,-0.000371875
1498846827,-0.000290625,4.75e-05,-0.000375625
1498846827,-0.00029375,5.5e-05,-0.00037875
1498846827,-0.00029375,4.75e-05,-0.0003775
1498846827,-0.00029375,5.5e-05,-0.000366875
1498846827,-0.000301875,5.0625e-05,-0.000375
1498846827,-0.0002975,5.5e-05,-0.000375
1498846827,-0.0002975,5.5e-05,-0.000370625
1498846827,-0.0002975,6.5625e-05,-0.0003625
1498846827,-0.00030875,4.75e-05,-0.000365625
1498846827,-0.000305,2.25e-05,-0.000365625
1498846827,-0.000305625,5e-06,-0.0003775
1498846827,-0.000305625,-2.5e-06,-0.000370625
1498846828,-0.0003025,-1.375e-05,-0.000370625
1498846828,-0.00029875,-1.375e-05,-0.0003625
1498846828,-0.0003025,-2.0625e-05,-0.000366875
1498846828,-0.0003025,-3.1875e-05,-0.0003625
1498846828,-0.000295,-4.5625e-05,-0.00035875
1498846828,-0.0003025,-4.6875e-05,-0.0003775
1498846828,-0.00028875,-6.0625e-05,-0.0003625
1498846828,-0.000295,-6.5e-05,-0.000370625
1498846828,-0.00029875,-5.75e-05,-0.000375
1498846828,-0.000295,-5.5e-05,-0.000366875
1498846828,-0.000276875,-5.75e-05,-0.0003775
1498846828,-0.00028875,-5.75e-05,-0.000370625
1498846828,-0.00028875,-5.75e-05,-0.0003775
1498846828,-0.000285,-6.5e-05,-0.000366875
1498846828,-0.0003025,-5.5625e-05,-0.000375
1498846828,-0.000295,-6.1875e-05,-0.000375
1498846828,-0.0003025,-5.5625e-05,-0.000370625
1498846828,-0.00029875,-6.0625e-05,-0.000385625
1498846828,-0.0003025,-6.0625e-05,-0.000381875
1498846829,-0.00029875,-5.75e-05,-0.000385625
1498846829,-0.00029875,-5.75e-05,-0.000385625
1498846829,-0.000291875,-3.5625e-05,-0.00039
1498846829,-0.00031,-6.5e-05,-0.00039375
1498846829,-0.000305625,-5.75e-05,-0.00039375
1498846829,-0.00031375,-6.0625e-05,-0.00039375
1498846829,-0.00029875,-6.875e-05,-0.000405625
1498846829,-0.0003025,-5.5e-05,-0.000405625
1498846829,-0.00031375,-6.5e-05,-0.000401875
1498846829,-0.00031375,-6.0625e-05,-0.000401875
1498846829,-0.00031375,-5.0625e-05,-0.00041
1498846829,-0.000316875,-5.5e-05,-0.00042875
1498846829,-0.00031375,-5.75e-05,-0.0004125
1498846829,-0.00031,-6.875e-05,-0.000420625
1498846829,-0.00029875,-5.75e-05,-0.0004325
1498846829,-0.000316875,-5.75e-05,-0.000425
1498846829,-0.000306875,-5.0625e-05,-0.000436875
1498846829,-0.00031,-4.6875e-05,-0.000445
1498846829,-0.00031375,-5.75e-05,-0.000436875
1498846829,-0.000320625,-6.0625e-05,-0.0004525
1498846829,-0.00031,-6.0625e-05,-0.000440625
1498846830,-0.00031375,-5.0625e-05,-0.000455625
1498846830,-0.0003025,-4.6875e-05,-0.000460625
1498846830,-0.000305625,-5.75e-05,-0.000435625
1498846830,-0.000305625,-5.75e-05,-0.000455
1498846830,-0.000305625,-5.75e-05,-0.000470625
1498846830,-0.000305625,-5.5e-05,-0.00045875
1498846830,-0.00031375,-5.75e-05,-0.00045875
1498846830,-0.00031375,-6.0625e-05,-0.00046375
1498846830,-0.000305625,-5.0625e-05,-0.000466875
1498846830,-0.000305625,-4.6875e-05,-0.000466875
1498846830,-0.0003025,-5.5e-05,-0.000475
1498846830,-0.00031375,-5.5e-05,-0.00047875
1498846830,-0.00031,-5.0625e-05,-0.000486875
1498846830,-0.00029875,-3.25e-05,-0.00049
1498846830,-0.00031,-4.6875e-05,-0.000501875
1498846830,-0.000305625,-5.5e-05,-0.0004825
1498846830,-0.0003025,-4.6875e-05,-0.0004825
1498846830,-0.000295,-2.875e-05,-0.00049
1498846830,-0.00029875,-4.6875e-05,-0.000481875
1498846830,-0.0003025,-4.25e-05,-0.0004975
1498846831,-0.0003025,-4.25e-05,-0.000500625
1498846831,-0.0003025,-4.6875e-05,-0.0004975
1498846831,-0.00029875,-4.6875e-05,-0.000500625
1498846831,-0.00029875,-4.6875e-05,-0.000505
1498846831,-0.0003025,-4.25e-05,-0.000500625
1498846831,-0.00029875,-3.5625e-05,-0.0005125
1498846831,-0.00029875,-3.25e-05,-0.000500625
1498846831,-0.000291875,-3.5625e-05,-0.000520625
1498846831,-0.00028875,-3.25e-05,-0.000516875
1498846831,-0.00028875,-3.25e-05,-0.000516875
1498846831,-0.000285,-2.875e-05,-0.00052875
1498846831,-0.000285,-2.875e-05,-0.00052875
1498846831,-0.000280625,-2.875e-05,-0.000516875
1498846831,-0.000285,-2.1875e-05,-0.00052875
1498846831,-0.000280625,-3.25e-05,-0.000525
1498846831,-0.000276875,-3.25e-05,-0.00052875
1498846831,-0.000276875,-3.5625e-05,-0.000525
1498846831,-0.000276875,-3.5625e-05,-0.000525
1498846831,-0.000266875,-4e-05,-0.00052875
1498846831,-0.000266875,-3.5625e-05,-0.000525
1498846832,-0.00027375,-3.5625e-05,-0.000535625
1498846832,-0.00025875,-3.5625e-05,-0.000525
1498846832,-0.000266875,-3.5625e-05,-0.000535625
1498846832,-0.00025875,-2.875e-05,-0.00054375
1498846832,-0.0002625,-2.5e-05,-0.000535625
1498846832,-0.000251875,-3.25e-05,-0.000540625
1498846832,-0.00024875,-2.5e-05,-0.000540625
1498846832,-0.00024875,-2.5e-05,-0.000551875
1498846832,-0.000245,-2.875e-05,-0.00054375
1498846832,-0.000241875,-2.5e-05,-0.00054375
1498846832,-0.000241875,-2.5e-05,-0.00054375
1498846832,-0.0002375,-1.75e-05,-0.00054375
1498846832,-0.000241875,-2.1875e-05,-0.00056375
1498846832,-0.000241875,-2.1875e-05,-0.00056375
1498846832,-0.00023375,-7.5e-06,-0.000546875
1498846832,-0.00023,-1.5e-05,-0.000550625
1498846832,-0.00023,-1.5e-05,-0.000550625
1498846832,-0.00023,-7.5e-06,-0.00055875
1498846832,-0.00022,-1.75e-05,-0.00055875
1498846832,-0.00022375,-7.5e-06,-0.00055875
1498846833,-0.00022,-7.5e-06,-0.000566875
1498846833,-0.000220625,3.75e-06,-0.00055875
1498846833,-0.0002125,1e-05,-0.00056
1498846833,-0.00021,1.25e-05,-0.000551875
1498846833,-0.00021,1.25e-05,-0.000551875
1498846833,-0.000191875,1.6875e-05,-0.0005675
1498846833,-0.0002025,5.625e-06,-0.00054875
1498846833,-0.000205625,2.5e-06,-0.000560625
1498846833,-0.0002025,8.75e-06,-0.0005725
1498846833,-0.000191875,5.625e-06,-0.00056875
1498846833,-0.000185,2.0625e-05,-0.00056875
1498846833,-0.00019875,1.25e-05,-0.000556875
1498846833,-0.0001875,1.25e-05,-0.000556875
1498846833,-0.00017375,2.0625e-05,-0.000556875
1498846833,-0.000180625,1.25e-05,-0.00056875
1498846833,-0.000180625,1.25e-05,-0.000565
1498846833,-0.000185,1.25e-05,-0.00056875
1498846833,-0.0001775,1.6875e-05,-0.000560625
1498846833,-0.0001775,2.0625e-05,-0.000556875
1498846833,-0.00017375,1.25e-05,-0.000560625
1498846834,-0.000165625,1.25e-05,-0.000565
1498846834,-0.00016,2.0625e-05,-0.0005525
1498846834,-0.00016,3.0625e-05,-0.0005525
1498846834,-0.00016,2.75e-05,-0.0005475
1498846834,-0.00017,3.0625e-05,-0.000555625
1498846834,-0.00016,2.75e-05,-0.000551875
1498846834,-0.000165625,3.5e-05,-0.00056
1498846834,-0.0001625,3.0625e-05,-0.0005475
1498846834,-0.00016,3.5e-05,-0.0005525
1498846834,-0.000165625,3.5e-05,-0.000555625
1498846834,-0.000155625,3.875e-05,-0.000555625
1498846834,-0.00016,4.1875e-05,-0.0005475
1498846834,-0.00016,4.1875e-05,-0.0005475
1498846834,-0.000155625,5.5625e-05,-0.00054375
1498846834,-0.00016,4.1875e-05,-0.00054375
1498846834,-0.000145,4.5625e-05,-0.000540625
1498846834,-0.0001475,4.875e-05,-0.000536875
1498846834,-0.000155625,4.5625e-05,-0.000535625
1498846834,-0.000155625,4.5625e-05,-0.000535625
1498846834,-0.000145,5.25e-05,-0.000516875
1498846835,-0.00016,4.875e-05,-0.000525
1498846835,-0.0001475,4.875e-05,-0.000535625
1498846835,-0.000155625,4.875e-05,-0.000525
1498846835,-0.000151875,5.25e-05,-0.00052875
1498846835,-0.000155625,5.25e-05,-0.000516875
1498846835,-0.0001475,4.875e-05,-0.000516875
1498846835,-0.000155625,5.25e-05,-0.000516875
1498846835,-0.000151875,5.5625e-05,-0.000505625
1498846835,-0.000155625,4.875e-05,-0.000520625
1498846835,-0.0001475,5.25e-05,-0.00050875
1498846835,-0.000151875,4.875e-05,-0.0004975
1498846835,-0.0001475,4.5625e-05,-0.0004975
1498846835,-0.00016,4.1875e-05,-0.00049375
1498846835,-0.000151875,3.875e-05,-0.000501875
1498846835,-0.000155625,4.5625e-05,-0.000490625
1498846835,-0.000155625,3.5e-05,-0.00049875
1498846835,-0.000155625,4.1875e-05,-0.000486875
1498846835,-0.0001625,3.875e-05,-0.000490625
1498846835,-0.000155625,3.5e-05,-0.000486875
1498846835,-0.0001475,2.375e-05,-0.00049
1498846836,-0.0001475,2.375e-05,-0.00049
1498846836,-0.0001625,2.375e-05,-0.000471875
1498846836,-0.0001475,2.0625e-05,-0.0004825
1498846836,-0.00016,2.0625e-05,-0.000475
1498846836,-0.0001475,2.0625e-05,-0.000470625
1498846836,-0.0001475,2.0625e-05,-0.000475
1498846836,-0.000140625,2.375e-05,-0.000466875
1498846836,-0.000151875,2.0625e-05,-0.000470625
1498846836,-0.000145,1.6875e-05,-0.000470625
1498846836,-0.000140625,2.75e-05,-0.000466875
1498846836,-0.000145,8.75e-06,-0.000475
1498846836,-0.00013,2.375e-05,-0.000475
1498846836,-0.00013375,8.75e-06,-0.00047875
1498846836,-0.000126875,2.5e-06,-0.000455
1498846836,-0.00013,5.625e-06,-0.00045875
1498846836,-0.0001375,-6.25e-07,-0.000466875
1498846836,-0.00013375,2.5e-06,-0.00045875
1498846836,-0.000115625,8.75e-06,-0.000470625
1498846836,-0.000115625,8.75e-06,-0.000470625
1498846836,-0.000126875,2.5e-06,-0.000475
1498846837,-0.000130625,8.75e-06,-0.000470625
1498846837,-0.0001225,-6.25e-07,-0.00045875
1498846837,-0.0001225,8.75e-06,-0.000470625
1498846837,-0.0001125,1.375e-05,-0.000475
1498846837,-0.000105,2.5e-05,-0.000466875
1498846837,-0.00012,3.25e-05,-0.000466875
1498846837,-0.00012,4.0625e-05,-0.00047875
1498846837,-0.0001125,3.5625e-05,-0.00046375
1498846837,-0.0001125,3.6875e-05,-0.000466875
1498846837,-0.000115,3.6875e-05,-0.000466875
1498846837,-0.00011875,3.25e-05,-0.000466875
1498846837,-0.0001075,3.25e-05,-0.000475
1498846837,-0.00011875,3.25e-05,-0.00047875
1498846837,-0.0001075,4.0625e-05,-0.000466875
1498846837,-0.000111875,3e-05,-0.00047875
1498846837,-0.000111875,3.6875e-05,-0.000466875
1498846837,-0.000111875,2.25e-05,-0.000475
1498846837,-0.00011875,1.875e-05,-0.00047875
1498846837,-0.000111875,1.875e-05,-0.000475
1498846837,-0.00010375,1.0625e-05,-0.000466875
1498846838,-0.0001075,1.5e-05,-0.000475
1498846838,-0.00010375,1.875e-05,-0.00046375
1498846838,-9.6875e-05,1.5e-05,-0.000475
1498846838,-9e-05,1.0625e-05,-0.000470625
1498846838,-8.5625e-05,1.5625e-05,-0.000475
1498846838,-9e-05,5.625e-06,-0.000475
1498846838,-8.5625e-05,8.75e-06,-0.00047875
1498846838,-7.875e-05,1.5625e-05,-0.00049
1498846838,-7.5e-05,-1.875e-06,-0.000475
1498846838,-6.5e-05,1.875e-06,-0.00047375
1498846838,-7.1875e-05,-1.875e-06,-0.000485625
1498846838,-6.75e-05,-5.625e-06,-0.000481875
1498846838,-6.0625e-05,1.875e-06,-0.00047375
1498846838,-5.6875e-05,-1.875e-06,-0.0004975
1498846838,-5.375e-05,1.875e-06,-0.00049375
1498846838,-5e-05,-5.625e-06,-0.00049
1498846838,-3.875e-05,-8.75e-06,-0.0004875
1498846838,-5.375e-05,-8.75e-06,-0.000496875
1498846838,-5e-05,-1.25e-05,-0.00050375
1498846838,-3.5e-05,-1.25e-05,-0.000511875
1498846839,-3.5e-05,-1.25e-05,-0.0004925
1498846839,-2.875e-05,-1.5625e-05,-0.0005
1498846839,-2.875e-05,-1.25e-05,-0.00052
1498846839,-2.0625e-05,-1.5625e-05,-0.000505
1498846839,-1.375e-05,-8.75e-06,-0.000520625
1498846839,-1.6875e-05,-2e-05,-0.000525
1498846839,-2.0625e-05,-1.25e-05,-0.00052875
1498846839,-3.1875e-05,-1.25e-05,-0.0005275
1498846839,-2.5e-05,-2.25e-05,-0.0005275
1498846839,-2.5e-05,-8.75e-06,-0.000535
1498846839,-2.0625e-05,-8.75e-06,-0.00054
1498846839,-6.875e-06,-8.75e-06,-0.000546875
1498846839,-1.375e-05,-1.5625e-05,-0.0005425
1498846839,-6.875e-06,-1.5625e-05,-0.00054
1498846839,-1e-05,-8.75e-06,-0.000555
1498846839,-6.875e-06,-2e-05,-0.000555
1498846839,-6.875e-06,-8.75e-06,-0.000551875
1498846839,3.75e-06,1.875e-06,-0.000555
1498846839,-1e-05,-8.75e-06,-0.000555
1498846839,-1.375e-05,-1.875e-06,-0.00055875
1498846840,-1e-05,-1.875e-06,-0.0005625
1498846840,-6.875e-06,1.875e-06,-0.000570625
1498846840,-6.875e-06,-5.625e-06,-0.0005625
1498846840,0.0,1.875e-06,-0.000570625
1498846840,-1e-05,1.875e-06,-0.000575
1498846840,-1.6875e-05,-1.875e-06,-0.000575
1498846840,-2.5e-06,1.1875e-05,-0.000570625
1498846840,-2.5e-06,8.75e-06,-0.000581875
1498846840,-6.875e-06,8.75e-06,-0.0005775
1498846840,-1.375e-05,1.1875e-05,-0.000585625
1498846840,-6.875e-06,8.75e-06,-0.000581875
1498846840,-1.375e-05,1.1875e-05,-0.000586875
1498846840,3.75e-06,2.375e-05,-0.00059
1498846840,-2.5e-06,1.5625e-05,-0.000585625
1498846840,0.0,2e-05,-0.00059375
1498846840,-1.375e-05,2.375e-05,-0.000586875
1498846840,-2.5e-06,2.375e-05,-0.000601875
1498846840,-6.875e-06,2.6875e-05,-0.0005975
1498846840,0.0,1.5625e-05,-0.0005975
1498846840,-6.875e-06,2.375e-05,-0.000605625
1498846841,-6.875e-06,1.5625e-05,-0.000601875
1498846841,-1.375e-05,2.6875e-05,-0.000601875
1498846841,-2.0625e-05,2.6875e-05,-0.000605625
1498846841,-2.5e-06,2e-05,-0.00059
1498846841,-2.5e-06,3.0625e-05,-0.000605625
1498846841,-1e-05,2.6875e-05,-0.000605625
1498846841,-1.375e-05,2.375e-05,-0.000601875
1498846841,-1e-05,2.6875e-05,-0.0006175
1498846841,-6.875e-06,2.6875e-05,-0.0006125
1498846841,-2.0625e-05,3.0625e-05,-0.000611875
1498846841,-1.375e-05,3.75e-05,-0.000605
1498846841,-2.5e-05,3.375e-05,-0.00060875
1498846841,-1.6875e-05,3.375e-05,-0.000596875
1498846841,-1.375e-05,4.5e-05,-0.000600625
1498846841,-1.6875e-05,4.5e-05,-0.000596875
1498846841,-3.1875e-05,4.0625e-05,-0.00060875
1498846841,-3.1875e-05,4.5e-05,-0.00060875
1498846841,-2.875e-05,4.5e-05,-0.0005925
1498846841,-2.5e-05,4.875e-05,-0.00061
1498846841,-3.1875e-05,5.5625e-05,-0.000605625
1498846842,-3.875e-05,4.875e-05,-0.000605625
1498846842,-2.5e-05,5.875e-05,-0.0005975
1498846842,-2.5e-05,5.5625e-05,-0.00059375
1498846842,-3.5e-05,5.875e-05,-0.00059
1498846842,-2.875e-05,5.5625e-05,-0.00059375
1498846842,-3.1875e-05,5.5625e-05,-0.00059375
1498846842,-2.875e-05,5.1875e-05,-0.0005975
1498846842,-3.1875e-05,5.1875e-05,-0.0005975
1498846842,-3.5e-05,5.5625e-05,-0.00059
1498846842,-3.875e-05,6.25e-05,-0.00059
1498846842,-5e-05,5.1875e-05,-0.0005975
1498846842,-4.6875e-05,5.5625e-05,-0.00059375
1498846842,-4.25e-05,6.1875e-05,-0.00059375
1498846842,-5e-05,6.1875e-05,-0.00059375
1498846842,-5e-05,5.75e-05,-0.00059
1498846842,-5e-05,5.5e-05,-0.00059375
1498846842,-4.6875e-05,5.75e-05,-0.00059375
1498846842,-5e-05,6.1875e-05,-0.0005975
1498846842,-4.6875e-05,6.5625e-05,-0.000576875
1498846842,-5e-05,6.5625e-05,-0.000580625
1498846843,-5e-05,6.5625e-05,-0.00058875
1498846843,-4.25e-05,6.1875e-05,-0.00058875
1498846843,-5.375e-05,6.5625e-05,-0.000580625
1498846843,-6.0625e-05,6.5625e-05,-0.000585
1498846843,-5.375e-05,7.25e-05,-0.00057375
1498846843,-5e-05,7e-05,-0.000576875
1498846843,-6.5e-05,5.5e-05,-0.00057375
1498846843,-5.6875e-05,7e-05,-0.00057
1498846843,-6.0625e-05,7e-05,-0.000576875
1498846843,-6.0625e-05,6.1875e-05,-0.000585625
1498846843,-6.0625e-05,6.1875e-05,-0.000585625
1498846843,-6.375e-05,7e-05,-0.00057375
1498846843,-6.375e-05,7e-05,-0.00057375
1498846843,-6.75e-05,7.25e-05,-0.000575
1498846843,-6.375e-05,7.25e-05,-0.00057375
1498846843,-6.375e-05,6.5625e-05,-0.000555
1498846843,-7.1875e-05,6.5625e-05,-0.000575
1498846843,-7.1875e-05,6.5625e-05,-0.000575
1498846843,-5.375e-05,7.25e-05,-0.000561875
1498846843,-6.5e-05,7e-05,-0.0005625
1498846844,-6.5e-05,7e-05,-0.0005625
1498846844,-7.1875e-05,7e-05,-0.00057
1498846844,-7.5e-05,7.25e-05,-0.00057
1498846844,-7.5e-05,7.5625e-05,-0.0005575
1498846844,-7.1875e-05,7.25e-05,-0.000565625
1498846844,-7.1875e-05,7e-05,-0.000561875
1498846844,-7.1875e-05,8.375e-05,-0.000561875
1498846844,-7.875e-05,7.5625e-05,-0.0005575
1498846844,-7.875e-05,7.5625e-05,-0.0005575
1498846844,-7.875e-05,8.375e-05,-0.000561875
1498846844,-6.75e-05,7.5625e-05,-0.0005575
1498846844,-7.1875e-05,7.5625e-05,-0.00055375
1498846844,-7.1875e-05,7.5625e-05,-0.00055375
1498846844,-7.5e-05,7.5625e-05,-0.000561875
1498846844,-7.5e-05,7.5625e-05,-0.000561875
1498846844,-7.5e-05,7.5625e-05,-0.00055
1498846844,-7.5e-05,8.75e-05,-0.000545625
1498846844,-7.5e-05,8.75e-05,-0.000545625
1498846844,-7.875e-05,7.5625e-05,-0.000555
1498846844,-7.1875e-05,8e-05,-0.00055375
1498846845,-7.875e-05,8e-05,-0.00055375
1498846845,-6.75e-05,8.375e-05,-0.000541875
1498846845,-6.0625e-05,8.75e-05,-0.000541875
1498846845,-7.5e-05,9.5e-05,-0.000541875
1498846845,-7.875e-05,8.75e-05,-0.000545625
1498846845,-7.875e-05,8.75e-05,-0.000545625
1498846845,-7.5e-05,8.75e-05,-0.00055375
1498846845,-6.375e-05,9.75e-05,-0.0005375
1498846845,-6.75e-05,8.75e-05,-0.00053875
1498846845,-7.5e-05,9.0625e-05,-0.000535
1498846845,-7.1875e-05,9.0625e-05,-0.00053875
1498846845,-7.1875e-05,8.375e-05,-0.000535
1498846845,-6.75e-05,8.75e-05,-0.000535
1498846845,-7.5e-05,9.0625e-05,-0.00054
1498846845,-7.5e-05,8e-05,-0.000531875
1498846845,-7.875e-05,9.0625e-05,-0.0005275
1498846845,-7.875e-05,9.0625e-05,-0.0005275
1498846845,-7.5e-05,8.75e-05,-0.000535
1498846845,-7.1875e-05,8.375e-05,-0.0005225
1498846845,-7.5e-05,8e-05,-0.0005275
1498846846,-6.75e-05,7.5625e-05,-0.0005275
1498846846,-6.0625e-05,9.0625e-05,-0.0005275
1498846846,-6.75e-05,8.375e-05,-0.0005275
1498846846,-7.5e-05,7.5625e-05,-0.0005275
1498846846,-7.5e-05,8.375e-05,-0.00052375
1498846846,-6.75e-05,8.375e-05,-0.000515625
1498846846,-7.875e-05,8.375e-05,-0.00052
1498846846,-8.1875e-05,8e-05,-0.00052
1498846846,-6.75e-05,8e-05,-0.00050375
1498846846,-6.375e-05,7.25e-05,-0.000515625
1498846846,-7.1875e-05,7.5625e-05,-0.000511875
1498846846,-7.875e-05,7e-05,-0.00052
1498846846,-7.875e-05,8e-05,-0.000515625
1498846846,-8.5625e-05,7.5625e-05,-0.0005075
1498846846,-9e-05,7.5625e-05,-0.0005
1498846846,-8.1875e-05,7.25e-05,-0.000511875
1498846846,-8.1875e-05,7.25e-05,-0.000515625
1498846846,-8.5625e-05,7.5625e-05,-0.000515625
1498846846,-7.875e-05,6.5625e-05,-0.00052
1498846846,-7.5e-05,7e-05,-0.000511875
1498846847,-9e-05,8e-05,-0.0005075
1498846847,-9e-05,8e-05,-0.000515625
1498846847,-9.375e-05,8e-05,-0.0005075
1498846847,-9.6875e-05,7e-05,-0.000515625
1498846847,-9.6875e-05,7e-05,-0.000515625
1498846847,-9e-05,7e-05,-0.000511875
1498846847,-8.5625e-05,6.5625e-05,-0.0005
1498846847,-8.5625e-05,6.5625e-05,-0.0005225
1498846847,-8.1875e-05,6.5625e-05,-0.000511875
1498846847,-8.1875e-05,5.5e-05,-0.000511875
1498846847,-9.375e-05,6.1875e-05,-0.000515625
1498846847,-9e-05,5.0625e-05,-0.00052
1498846847,-9.6875e-05,5.75e-05,-0.000515625
1498846847,-9.6875e-05,5.75e-05,-0.000511875
1498846847,-9.375e-05,4.75e-05,-0.00052
1498846847,-9.6875e-05,4.75e-05,-0.000515625
1498846847,-9.6875e-05,5.5e-05,-0.00052375
1498846847,-9.6875e-05,5.0625e-05,-0.00052
1498846847,-9.6875e-05,5.5e-05,-0.000515625
1498846847,-0.00010375,5.75e-05,-0.0005275
1498846848,-9.375e-05,5.5e-05,-0.00052375
1498846848,-0.0001075,5.5e-05,-0.000535
1498846848,-0.00010375,5.0625e-05,-0.00052375
1498846848,-9.375e-05,4.375e-05,-0.000535
1498846848,-9.375e-05,5.75e-05,-0.000535
1498846848,-0.00010375,5.75e-05,-0.0005225
1498846848,-9.375e-05,5.5e-05,-0.000526875
1498846848,-0.0001075,5.75e-05,-0.000535
1498846848,-0.000115,6.1875e-05,-0.000531875
1498846848,-0.000115,6.1875e-05,-0.000535
1498846848,-0.000111875,5.75e-05,-0.0005425
1498846848,-0.000111875,5.5e-05,-0.0005275
1498846848,-0.0001025,6.1875e-05,-0.000535
1498846848,-0.0001025,7e-05,-0.0005425
1498846848,-0.0001,6.5625e-05,-0.000535
1498846848,-0.000115,7.25e-05,-0.000535
1498846848,-0.0001075,5.5e-05,-0.0005425
1498846848,-0.000111875,7.25e-05,-0.000550625
1498846848,-0.0001075,6.5625e-05,-0.0005425
1498846848,-0.00010375,7e-05,-0.00053875
1498846849,-0.000111875,7e-05,-0.000550625
1498846849,-0.00011875,6.1875e-05,-0.000555
1498846849,-0.000111875,7.25e-05,-0.00053875
1498846849,-0.0001075,6.1875e-05,-0.000546875
1498846849,-0.000115,7.25e-05,-0.000550625
1498846849,-0.000115,7e-05,-0.0005425
1498846849,-0.0001075,7.25e-05,-0.000546875
1498846849,-0.0001075,6.5625e-05,-0.000550625
1498846849,-0.000111875,6.5625e-05,-0.000550625
1498846849,-0.00011875,6.5625e-05,-0.000546875
1498846849,-0.00010375,7e-05,-0.000555
1498846849,-0.0001,6.1875e-05,-0.00055875
1498846849,-0.00010375,7.25e-05,-0.000550625
1498846849,-0.000111875,7.5625e-05,-0.0005425
1498846849,-0.0001075,7.25e-05,-0.00055375
1498846849,-0.00010375,6.1875e-05,-0.00055375
1498846849,-0.000111875,7e-05,-0.000556875
1498846849,-0.000111875,7e-05,-0.00055375
1498846849,-0.00010375,7.25e-05,-0.000561875
1498846849,-0.000115,7.25e-05,-0.000545625
1498846850,-0.0001,7e-05,-0.00055
1498846850,-0.00011875,7.5625e-05,-0.000556875
1498846850,-0.0001,7e-05,-0.000561875
1498846850,-9.6875e-05,9.0625e-05,-0.00055375
1498846850,-9.375e-05,0.000101875,-0.00055375
1498846850,-9.375e-05,9.5e-05,-0.000546875
1498846850,-8.5625e-05,0.000101875,-0.000555
1498846850,-9e-05,0.0001125,-0.000546875
1498846850,-8.1875e-05,0.0001125,-0.0005425
1498846850,-8.1875e-05,0.000115625,-0.000550625
1498846850,-6.75e-05,0.00013,-0.00055
1498846850,-7.1875e-05,0.0001225,-0.000550625
1498846850,-8.1875e-05,0.000126875,-0.000550625
1498846850,-7.875e-05,0.00013,-0.000546875
1498846850,-8e-05,0.000121875,-0.000555
1498846850,-7.5625e-05,0.00013,-0.0005575
1498846850,-8.25e-05,0.000136875,-0.000550625
1498846850,-7.5625e-05,0.00013375,-0.000550625
1498846850,-8.25e-05,0.000125625,-0.0005625
1498846850,-8e-05,0.000136875,-0.000550625
1498846851,-8.6875e-05,0.00012875,-0.0005575
1498846851,-8.25e-05,0.0001325,-0.000550625
1498846851,-8.25e-05,0.0001325,-0.00055875
1498846851,-8.6875e-05,0.000120625,-0.0005625
1498846851,-9.0625e-05,0.000120625,-0.0005625
1498846851,-8.25e-05,0.00012875,-0.000550625
1498846851,-8.25e-05,0.00012875,-0.0005575
1498846851,-9.0625e-05,0.000125,-0.0005625
1498846851,-9.5e-05,0.00012875,-0.000561875
1498846851,-9.5e-05,0.00012875,-0.00055375
1498846851,-9.0625e-05,0.000125,-0.000565625
1498846851,-0.000105,0.000135625,-0.00055375
1498846851,-0.000105,0.00013875,-0.000561875
1498846851,-0.00010875,0.0001325,-0.000545625
1498846851,-0.000100625,0.000135625,-0.000561875
1498846851,-0.000115625,0.0001325,-0.0005575
1498846851,-0.000115625,0.000135625,-0.00055
1498846851,-0.0001125,0.000135625,-0.000561875
1498846851,-0.0001125,0.0001325,-0.00055
1498846851,-0.0001125,0.0001425,-0.00055375
1498846852,-0.00012,0.000135625,-0.000561875
1498846852,-0.00012,0.00013875,-0.00055
1498846852,-0.00012,0.000146875,-0.000545625
1498846852,-0.0001225,0.00013875,-0.000545625
1498846852,-0.00013,0.000150625,-0.00055
1498846852,-0.00013375,0.000150625,-0.000545625
1498846852,-0.0001375,0.00015,-0.000541875
1498846852,-0.0001375,0.000150625,-0.000541875
1498846852,-0.0001375,0.0001575,-0.000545625
1498846852,-0.000140625,0.000150625,-0.000550625
1498846852,-0.000151875,0.000160625,-0.000531875
1498846852,-0.000151875,0.000160625,-0.00053875
1498846852,-0.0001475,0.0001575,-0.000535
1498846852,-0.0001475,0.000160625,-0.0005425
1498846852,-0.000155625,0.000160625,-0.000535
1498846852,-0.000151875,0.0001575,-0.000546875
1498846852,-0.000155625,0.000160625,-0.0005425
1498846852,-0.000165625,0.000171875,-0.000535
1498846852,-0.0001625,0.0001675,-0.000535
1498846852,-0.000165,0.000160625,-0.000531875
1498846853,-0.00016875,0.000165,-0.0005425
1498846853,-0.0001725,0.00015375,-0.000531875
1498846853,-0.0001725,0.000160625,-0.000526875
1498846853,-0.00016875,0.00016375,-0.0005275
1498846853,-0.00018,0.00016375,-0.000531875
1498846853,-0.00018,0.00016,-0.000515625
1498846853,-0.0001725,0.000166875,-0.0005075
1498846853,-0.000176875,0.00016375,-0.0005225
1498846853,-0.00018375,0.00016,-0.0005275
1498846853,-0.0001975,0.000150625,-0.000531875
1498846853,-0.00019375,0.0001425,-0.00052
1498846853,-0.000205,0.000135625,-0.0005275
1498846853,-0.000215625,0.000125,-0.000515625
1498846853,-0.000211875,0.000121875,-0.0005225
1498846853,-0.000211875,0.000115,-0.000531875
1498846853,-0.00020875,9.6875e-05,-0.000531875
1498846853,-0.0002125,0.000106875,-0.0005225
1498846853,-0.0002025,0.000106875,-0.000535
1498846853,-0.000220625,0.000106875,-0.00052
1498846853,-0.000205625,0.0001025,-0.00052
1498846854,-0.000216875,0.000110625,-0.000531875
1498846854,-0.0002125,9.5625e-05,-0.000531875
1498846854,-0.000220625,0.0001,-0.000531875
1498846854,-0.0002125,0.0001025,-0.0005225
1498846854,-0.000216875,9.5625e-05,-0.000526875
1498846854,-0.000220625,0.0001,-0.000531875
1498846854,-0.000216875,9.25e-05,-0.00052
1498846854,-0.000205625,0.0001025,-0.0005275
1498846854,-0.0002125,0.000106875,-0.0005225
1498846854,-0.000220625,0.0001025,-0.0005275
1498846854,-0.000220625,0.000110625,-0.000526875
1498846854,-0.000225,0.000106875,-0.000526875
1498846854,-0.000216875,0.000110625,-0.00052
1498846854,-0.000220625,0.000110625,-0.000515625
1498846854,-0.000225,0.000106875,-0.00052
1498846854,-0.000235,0.000110625,-0.000515625
1498846854,-0.000220625,0.000106875,-0.00052
1498846854,-0.000235,0.000110625,-0.0005275
1498846854,-0.000225,0.0001025,-0.0005275
1498846854,-0.0002275,0.0001175,-0.00052375
1498846855,-0.0002275,0.0001,-0.00052
1498846855,-0.000235,0.000110625,-0.0005075
1498846855,-0.000245625,0.00011375,-0.00052
1498846855,-0.0002275,0.00011375,-0.000526875
1498846855,-0.000235,0.0001025,-0.0005075
1498846855,-0.000235,0.000110625,-0.000526875
1498846855,-0.000235,0.000110625,-0.0005275
1498846855,-0.00025,0.000106875,-0.000515625
1498846855,-0.000245625,8.875e-05,-0.000515625
1498846855,-0.000245,9.5625e-05,-0.00052
1498846855,-0.0002375,9.5625e-05,-0.00052
1498846855,-0.00023,8.875e-05,-0.000515625
1498846855,-0.000240625,9.5625e-05,-0.000511875
1498846855,-0.000240625,9.5625e-05,-0.000511875
1498846855,-0.000251875,8.5625e-05,-0.0005075
1498846855,-0.000245,8.875e-05,-0.000520625
1498846855,-0.000245,8.875e-05,-0.000520625
1498846855,-0.000251875,8.5625e-05,-0.0005125
1498846855,-0.000245,8.1875e-05,-0.00052375
1498846855,-0.000245,8.1875e-05,-0.00052375
1498846856,-0.00025875,7.75e-05,-0.000505
1498846856,-0.00025875,7.75e-05,-0.000520625
1498846856,-0.0002625,8.875e-05,-0.000516875
1498846856,-0.000255625,8.875e-05,-0.00050875
1498846856,-0.0002625,7.75e-05,-0.000505
1498846856,-0.000255625,7.375e-05,-0.000516875
1498846856,-0.00027375,8.875e-05,-0.000516875
1498846856,-0.00027375,8.875e-05,-0.000516875
1498846856,-0.000276875,8.5625e-05,-0.000505
1498846856,-0.000276875,8.5625e-05,-0.000505
1498846856,-0.000280625,8.1875e-05,-0.0005125
1498846856,-0.000291875,8.5625e-05,-0.000516875
1498846856,-0.000285,8.875e-05,-0.000516875
1498846856,-0.00028875,8.5625e-05,-0.0005125
1498846856,-0.000291875,7.75e-05,-0.000516875
1498846856,-0.00029875,9.5625e-05,-0.000520625
1498846856,-0.00028875,8.5625e-05,-0.000516875
1498846856,-0.000291875,9.25e-05,-0.00052875
1498846856,-0.00028875,8.5625e-05,-0.000520625
1498846856,-0.0003025,8.875e-05,-0.00050875
1498846857,-0.0003025,8.875e-05,-0.00050875
1498846857,-0.000305625,8.875e-05,-0.000516875
1498846857,-0.00029875,8.5625e-05,-0.00050875
1498846857,-0.000305625,8.1875e-05,-0.000520625
1498846857,-0.00031,8.1875e-05,-0.0005125
1498846857,-0.00031375,8.875e-05,-0.000516875
1498846857,-0.00031375,8.875e-05,-0.000516875
1498846857,-0.00031375,8.875e-05,-0.000516875
1498846857,-0.00031375,9.25e-05,-0.000520625
1498846857,-0.00031,8.875e-05,-0.000516875
1498846857,-0.00031,9.25e-05,-0.00052375
1498846857,-0.00029875,8.875e-05,-0.00052375
1498846857,-0.00031,8.875e-05,-0.00052375
1498846857,-0.00031,8.875e-05,-0.0005275
1498846857,-0.00031,9.5625e-05,-0.000520625
1498846857,-0.000305625,8.5625e-05,-0.000520625
1498846857,-0.0003025,8.1875e-05,-0.000520625
1498846857,-0.0003025,8.1875e-05,-0.000520625
1498846857,-0.000305625,8.5625e-05,-0.00050875
1498846857,-0.00031375,9.5625e-05,-0.000516875
1498846858,-0.00031375,9.5625e-05,-0.000516875
1498846858,-0.0003025,9.25e-05,-0.000520625
1498846858,-0.00031,8.5625e-05,-0.000516875
1498846858,-0.000305625,8.875e-05,-0.000516875
1498846858,-0.000295,9.25e-05,-0.000516875
1498846858,-0.00029875,9.5625e-05,-0.000516875
1498846858,-0.00031,0.0001,-0.000520625
1498846858,-0.00031,8.875e-05,-0.00050875
1498846858,-0.0003025,9.25e-05,-0.000505
1498846858,-0.000295,9.25e-05,-0.00052375
1498846858,-0.00029875,8.875e-05,-0.0005275
1498846858,-0.000305625,8.875e-05,-0.0005125
1498846858,-0.0003025,8.5625e-05,-0.000520625
1498846858,-0.000305625,8.875e-05,-0.00052875
1498846858,-0.00029875,8.1875e-05,-0.000516875
1498846858,-0.00031,9.5625e-05,-0.0005125
1498846858,-0.000295,8.5625e-05,-0.000520625
1498846858,-0.000316875,8.1875e-05,-0.00052375
1498846858,-0.000295,9.25e-05,-0.000516875
1498846858,-0.000305625,8.875e-05,-0.00052375
1498846859,-0.0003025,8.1875e-05,-0.000505
1498846859,-0.000305625,8.5625e-05,-0.00050875
1498846859,-0.00029875,8.5625e-05,-0.000520625
1498846859,-0.00031,8.875e-05,-0.0005275
