1498766563,-1.75e-05,-8.25e-05,-0.00037875
1498766563,-1e-05,-7.875e-05,-0.000370625
1498766563,-2.5e-06,-9e-05,-0.00037875
1498766563,-1.75e-05,-8.5625e-05,-0.00037875
1498766563,-1.375e-05,-7.875e-05,-0.000375
1498766563,-1e-05,-7.875e-05,-0.000370625
1498766563,-1.75e-05,-8.25e-05,-0.00037875
1498766563,-1e-05,-7.875e-05,-0.000386875
1498766563,-1.375e-05,-7.875e-05,-0.000375
1498766563,-5.625e-06,-7.5e-05,-0.0003825
1498766563,-2.5e-06,-7.875e-05,-0.000375
1498766563,-5.625e-06,-8.25e-05,-0.000370625
1498766564,-2.5e-06,-7.1875e-05,-0.000375
1498766564,-1e-05,-7.875e-05,-0.0003625
1498766564,0.0,-8.25e-05,-0.00035875
1498766564,-5.625e-06,-8.25e-05,-0.0003825
1498766564,-1.375e-05,-7.5e-05,-0.0003825
1498766564,-2.5e-06,-8.25e-05,-0.00037875
1498766564,3.75e-06,-7.1875e-05,-0.000375
1498766564,0.0,-8.5625e-05,-0.000375
1498766564,-1e-05,-7.875e-05,-0.000375
1498766564,-5.625e-06,-7.5e-05,-0.000370625
1498766564,-5.625e-06,-8.5625e-05,-0.00037875
1498766564,-1.375e-05,-8.25e-05,-0.0003625
1498766564,-5.625e-06,-7.875e-05,-0.0003825
1498766564,3.75e-06,-8.25e-05,-0.000375
1498766564,-5.625e-06,-7.5e-05,-0.000375
1498766564,-5.625e-06,-8.25e-05,-0.000370625
1498766564,-1.375e-05,-7.1875e-05,-0.00037875
1498766564,-5.625e-06,-7.875e-05,-0.000370625
1498766564,-1e-05,-8.25e-05,-0.000366875
1498766564,-2.5e-06,-8.25e-05,-0.000370625
1498766565,-2.5e-06,-8.5625e-05,-0.00037875
1498766565,-5.625e-06,-8.25e-05,-0.000366875
1498766565,-5.625e-06,-7.5e-05,-0.000370625
1498766565,-2.5e-06,-7.875e-05,-0.00037875
1498766565,0.0,-8.5625e-05,-0.000386875
1498766565,-1e-05,-7.5e-05,-0.000375
1498766565,-1e-05,-7.875e-05,-0.000386875
1498766565,-1e-05,-7.875e-05,-0.000386875
1498766565,3.75e-06,-7.875e-05,-0.000315
1498766565,-1e-05,-7.875e-05,-0.0003175
1498766565,-1e-05,-7.875e-05,-0.00031
1498766565,0.0,-8.25e-05,-0.0003175
1498766565,0.0,-7.1875e-05,-0.00030875
1498766565,3.75e-06,-7.875e-05,-0.0002975
1498766565,3.75e-06,-7.875e-05,-0.0003175
1498766565,3.75e-06,-7.875e-05,-0.0003175
1498766565,-2.5e-06,-7.1875e-05,-0.00031
1498766565,0.0,-6.875e-05,-0.000305
1498766565,0.0,-7.5e-05,-0.000316875
1498766565,0.0,-7.5e-05,-0.000315625
1498766566,0.0,-7.5e-05,-0.000315625
1498766566,1.0625e-05,-7.5e-05,-0.00032
1498766566,1.0625e-05,-6.875e-05,-0.00030375
1498766566,7.5e-06,-6.875e-05,-0.000315625
1498766566,1.5e-05,-7.5e-05,-0.000311875
1498766566,3.75e-06,-7.1875e-05,-0.0003075
1498766566,7.5e-06,-6.875e-05,-0.000315625
1498766566,1.0625e-05,-8.5625e-05,-0.000300625
1498766566,1.875e-05,-8.25e-05,-0.000300625
1498766566,1.875e-05,-7.875e-05,-0.000300625
1498766566,2.1875e-05,-7.875e-05,-0.000305
1498766566,2.1875e-05,-7.875e-05,-0.000305
1498766566,2.875e-05,-8.5625e-05,-0.00030875
1498766566,1.875e-05,-9e-05,-0.000301875
1498766566,1.5e-05,-8.5625e-05,-0.00031
1498766566,1.875e-05,-9.375e-05,-0.0002925
1498766566,1.0625e-05,-9e-05,-0.0002975
1498766566,1.0625e-05,-9e-05,-0.0002975
1498766566,7.5e-06,-8.5625e-05,-0.000301875
1498766566,1.5e-05,-9.375e-05,-0.0002975
1498766567,1.0625e-05,-8.5625e-05,-0.00031
1498766567,7.5e-06,-8.5625e-05,-0.000301875
1498766567,1.875e-05,-9e-05,-0.00029
1498766567,7.5e-06,-9.6875e-05,-0.000301875
1498766567,3.75e-06,-9.6875e-05,-0.0002975
1498766567,1.0625e-05,-0.000100625,-0.000305
1498766567,1.0625e-05,-9.375e-05,-0.0002975
1498766567,0.0,-0.000100625,-0.0002925
1498766567,0.0,-0.000100625,-0.0002925
1498766567,0.0,-9e-05,-0.0002925
1498766567,0.0,-0.000100625,-0.000305
1498766567,0.0,-0.000100625,-0.000305
1498766567,3.75e-06,-0.0001075,-0.000305
1498766567,3.75e-06,-8.875e-05,-0.0002925
1498766567,-5.625e-06,-9.5625e-05,-0.00030875
1498766567,3.75e-06,-9.5625e-05,-0.000305
1498766567,1.0625e-05,-9.5625e-05,-0.0002975
1498766567,-5.625e-06,-9.5625e-05,-0.0002925
1498766567,-2.5e-06,-8.1875e-05,-0.000305
1498766567,-2.5e-06,-8.5625e-05,-0.000301875
1498766568,-2.5e-06,-9.375e-05,-0.000301875
1498766568,-5.625e-06,-9e-05,-0.000305
1498766568,3.75e-06,-9.375e-05,-0.000301875
1498766568,-5.625e-06,-9.375e-05,-0.000305
1498766568,-1.375e-05,-9e-05,-0.00029
1498766568,-5.625e-06,-8.25e-05,-0.000305
1498766568,-1.375e-05,-9.6875e-05,-0.0003125
1498766568,-1e-05,-7.875e-05,-0.0002975
1498766568,-5.625e-06,-9.375e-05,-0.000301875
1498766568,0.0,-9e-05,-0.000301875
1498766568,-2.5e-06,-9.375e-05,-0.000305
1498766568,-1e-05,-9e-05,-0.0002925
1498766568,-1e-05,-8.5625e-05,-0.000301875
1498766568,-1.375e-05,-8.5625e-05,-0.000301875
1498766568,-1.375e-05,-9.375e-05,-0.0003075
1498766568,-1.75e-05,-8.25e-05,-0.00030375
1498766568,-2.0625e-05,-8.5625e-05,-0.00030375
1498766568,-1.75e-05,-8.25e-05,-0.000315625
1498766568,-2.5e-05,-9.375e-05,-0.000315625
1498766568,-2.0625e-05,-8.25e-05,-0.000300625
1498766569,-2.0625e-05,-8.25e-05,-0.000311875
1498766569,-2.0625e-05,-8.5625e-05,-0.0003075
1498766569,-2.0625e-05,-9e-05,-0.000296875
1498766569,-1.75e-05,-8.25e-05,-0.000311875
1498766569,-3.1875e-05,-8.25e-05,-0.000311875
1498766569,-2.5e-05,-7.875e-05,-0.00030875
1498766569,-2.75e-05,-7.1875e-05,-0.000311875
1498766569,-2.75e-05,-7.5e-05,-0.000325
1498766569,-3.1875e-05,-7.5e-05,-0.000316875
1498766569,-2.5e-05,-7.1875e-05,-0.000320625
1498766569,-3.1875e-05,-8.25e-05,-0.000316875
1498766569,-2.75e-05,-7.5e-05,-0.000320625
1498766569,-3.875e-05,-7.5e-05,-0.00030875
1498766569,-2.5e-05,-8.25e-05,-0.000316875
1498766569,-3.1875e-05,-8.25e-05,-0.000316875
1498766569,-2.75e-05,-8.25e-05,-0.0003125
1498766569,-3.875e-05,-7.5e-05,-0.000316875
1498766569,-2.75e-05,-7.5e-05,-0.000316875
1498766569,-2.5e-05,-8.25e-05,-0.00032
1498766569,-3.1875e-05,-7.1875e-05,-0.00032375
1498766570,-3.1875e-05,-7.5e-05,-0.00032
1498766570,-2.5e-05,-7.5e-05,-0.00032375
1498766570,-2.0625e-05,-7.875e-05,-0.000315625
1498766570,-2.0625e-05,-7.5e-05,-0.000331875
1498766570,-2.75e-05,-7.875e-05,-0.00032375
1498766570,-2.75e-05,-7.875e-05,-0.00032
1498766570,-3.1875e-05,-8.25e-05,-0.0003275
1498766570,-3.1875e-05,-7.875e-05,-0.00032
1498766570,-2.75e-05,-8.5625e-05,-0.000335625
1498766570,-3.1875e-05,-7.5e-05,-0.000331875
1498766570,-3.1875e-05,-8.25e-05,-0.0003275
1498766570,-3.1875e-05,-7.875e-05,-0.0003275
1498766570,-2.75e-05,-7.1875e-05,-0.0003275
1498766570,-2.75e-05,-8.25e-05,-0.00032375
1498766570,-3.1875e-05,-7.875e-05,-0.000331875
1498766570,-2.5e-05,-8.25e-05,-0.000331875
1498766570,-2.5e-05,-7.875e-05,-0.00034
1498766570,-3.1875e-05,-7.1875e-05,-0.00034
1498766570,-2.5e-05,-6.75e-05,-0.000331875
1498766570,-2.0625e-05,-6.875e-05,-0.0003275
1498766571,-2.75e-05,-6.0625e-05,-0.0003275
1498766571,-2.0625e-05,-7.1875e-05,-0.000345
1498766571,-1.75e-05,-7.1875e-05,-0.0003475
1498766571,-1e-05,-6.5e-05,-0.000340625
1498766571,-1e-05,-6.5e-05,-0.000336875
1498766571,-1.375e-05,-6.5e-05,-0.0003325
1498766571,-1.75e-05,-6.875e-05,-0.0003325
1498766571,-1.375e-05,-6.75e-05,-0.000325
1498766571,-1e-05,-6.5e-05,-0.000340625
1498766571,-1e-05,-7.1875e-05,-0.000336875
1498766571,-1e-05,-6.5e-05,-0.000336875
1498766571,-5.625e-06,-6.875e-05,-0.000340625
1498766571,-5.625e-06,-6.0625e-05,-0.000340625
1498766571,-2.5e-06,-6.5e-05,-0.0003325
1498766571,-6.875e-06,-5.6875e-05,-0.000340625
1498766571,3.75e-06,-6.0625e-05,-0.00032
1498766571,7.5e-06,-7.1875e-05,-0.000340625
1498766571,7.5e-06,-6.875e-05,-0.000320625
1498766571,3.75e-06,-6.5e-05,-0.000336875
1498766571,3.75e-06,-6.75e-05,-0.00032875
1498766572,1.875e-05,-5.6875e-05,-0.000336875
1498766572,1.5e-05,-7.1875e-05,-0.0003275
1498766572,7.5e-06,-6.875e-05,-0.000331875
1498766572,1.5e-05,-5.6875e-05,-0.000331875
1498766572,1.5e-05,-6.0625e-05,-0.000335625
1498766572,1.5e-05,-6.875e-05,-0.0003275
1498766572,1.875e-05,-7.5e-05,-0.0003275
1498766572,1.0625e-05,-6.0625e-05,-0.0003275
1498766572,2.5625e-05,-6.875e-05,-0.000315625
1498766572,2.5625e-05,-5.6875e-05,-0.00032375
1498766572,1.875e-05,-7.1875e-05,-0.000331875
1498766572,2.1875e-05,-6.0625e-05,-0.000315625
1498766572,2.875e-05,-6.0625e-05,-0.000331875
1498766572,2.5625e-05,-6.5e-05,-0.000315625
1498766572,2.875e-05,-6.875e-05,-0.0003275
1498766572,2.875e-05,-6.875e-05,-0.00032375
1498766572,3.6875e-05,-6.5e-05,-0.000331875
1498766572,4.375e-05,-6.5e-05,-0.00032375
1498766572,3.25e-05,-6.5e-05,-0.00032
1498766572,2.5625e-05,-7.5e-05,-0.000315625
1498766573,4e-05,-7.1875e-05,-0.000311875
1498766573,4e-05,-7.5e-05,-0.00030375
1498766573,2.875e-05,-7.875e-05,-0.000315625
1498766573,3.6875e-05,-7.5e-05,-0.000311875
1498766573,3.25e-05,-7.5e-05,-0.000311875
1498766573,3.6875e-05,-7.1875e-05,-0.00030375
1498766573,4e-05,-8.25e-05,-0.00030375
1498766573,3.6875e-05,-7.875e-05,-0.000316875
1498766573,3.6875e-05,-9e-05,-0.00031
1498766573,2.875e-05,-8.25e-05,-0.0003125
1498766573,3.25e-05,-9e-05,-0.000305
1498766573,4e-05,-9e-05,-0.00031
1498766573,1.875e-05,-9e-05,-0.000305
1498766573,2.5e-05,-8.5625e-05,-0.000305
1498766573,2.1875e-05,-9e-05,-0.000305
1498766573,2.5625e-05,-8.25e-05,-0.0002975
1498766573,2.5625e-05,-9e-05,-0.0002975
1498766573,2.875e-05,-9e-05,-0.000305
1498766573,1.875e-05,-9e-05,-0.000305
1498766573,1.0625e-05,-9e-05,-0.00031
1498766574,1.875e-05,-9e-05,-0.0002975
1498766574,1.0625e-05,-8.25e-05,-0.00031
1498766574,1.0625e-05,-9e-05,-0.000301875
1498766574,7.5e-06,-7.875e-05,-0.000301875
1498766574,7.5e-06,-8.5625e-05,-0.000301875
1498766574,7.5e-06,-7.5e-05,-0.000301875
1498766574,3.75e-06,-8.25e-05,-0.0003125
1498766574,0.0,-8.5625e-05,-0.0003125
1498766574,0.0,-7.5e-05,-0.00030875
1498766574,0.0,-8.5625e-05,-0.00031
1498766574,-5.625e-06,-8.25e-05,-0.000315625
1498766574,-2.5e-06,-8.25e-05,-0.000315625
1498766574,-5.625e-06,-8.5625e-05,-0.000315625
1498766574,-1e-05,-7.875e-05,-0.00030375
1498766574,-2.5e-06,-8.5625e-05,-0.000311875
1498766574,-5.625e-06,-7.1875e-05,-0.00032
1498766574,-1e-05,-8.5625e-05,-0.00032375
1498766574,-1e-05,-8.5625e-05,-0.00032375
1498766574,-2.5e-05,-9e-05,-0.000311875
1498766574,-1.75e-05,-7.875e-05,-0.00032
1498766575,-2.5e-05,-7.875e-05,-0.000311875
1498766575,-1e-05,-8.25e-05,-0.000311875
1498766575,-1.75e-05,-8.5625e-05,-0.0003075
1498766575,-1.75e-05,-8.25e-05,-0.00032375
1498766575,-2.0625e-05,-7.875e-05,-0.000311875
1498766575,-1.375e-05,-8.5625e-05,-0.00032375
1498766575,-2.0625e-05,-8.25e-05,-0.00032
1498766575,-2.0625e-05,-8.5625e-05,-0.00032
1498766575,-3.5625e-05,-7.875e-05,-0.0003275
1498766575,-2.5e-05,-8.5625e-05,-0.00032375
1498766575,-2.5e-05,-8.25e-05,-0.00032
1498766575,-3.5625e-05,-9.6875e-05,-0.00032
1498766575,-2.75e-05,-7.875e-05,-0.0003275
1498766575,-3.5625e-05,-7.5e-05,-0.000315625
1498766575,-3.1875e-05,-8.25e-05,-0.000331875
1498766575,-3.5625e-05,-7.5e-05,-0.000331875
1498766575,-2.5e-05,-7.5e-05,-0.00033875
1498766575,-3.5625e-05,-9e-05,-0.000335625
1498766575,-3.5625e-05,-8.5625e-05,-0.000331875
1498766575,-3.1875e-05,-7.875e-05,-0.000331875
1498766576,-3.875e-05,-8.25e-05,-0.00032375
1498766576,-3.5625e-05,-8.5625e-05,-0.000335625
1498766576,-2.75e-05,-8.5625e-05,-0.000335625
1498766576,-3.875e-05,-9e-05,-0.00032375
1498766576,-3.1875e-05,-9.375e-05,-0.00034
1498766576,-3.1875e-05,-8.5625e-05,-0.00033875
1498766576,-4.5625e-05,-9.6875e-05,-0.0003275
1498766576,-2.75e-05,-9e-05,-0.000331875
1498766576,-3.875e-05,-9e-05,-0.0003275
1498766576,-2.75e-05,-8.5625e-05,-0.00034
1498766576,-2.75e-05,-9.6875e-05,-0.00032375
1498766576,-3.1875e-05,-9.6875e-05,-0.00034375
1498766576,-3.5625e-05,-0.00010375,-0.00032375
1498766576,-3.1875e-05,-9.6875e-05,-0.00033875
1498766576,-2.75e-05,-0.00010375,-0.000335625
1498766576,-2.5e-05,-9.6875e-05,-0.000350625
1498766576,-3.5625e-05,-0.000100625,-0.000335625
1498766576,-2.75e-05,-0.00010375,-0.000335625
1498766576,-3.1875e-05,-0.0001075,-0.00034375
1498766576,-3.1875e-05,-0.0001075,-0.00034375
1498766577,-3.1875e-05,-0.000111875,-0.00034375
1498766577,-2.5e-05,-9.25e-05,-0.000355625
1498766577,-2.5e-05,-9.25e-05,-0.000355625
1498766577,-1.75e-05,-0.0001025,-0.00034
1498766577,-5.625e-06,-0.0001025,-0.00033875
1498766577,-1.375e-05,-0.0001,-0.00034375
1498766577,-1.375e-05,-0.0001,-0.00034375
1498766577,-1e-05,-0.0001,-0.00035875
1498766577,-1.375e-05,-0.000106875,-0.000355
1498766577,-5.625e-06,-0.0001025,-0.00034375
1498766577,-1e-05,-0.0001,-0.000346875
1498766577,-5.625e-06,-0.000110625,-0.00034375
1498766577,0.0,-0.0001,-0.000355625
1498766577,0.0,-0.0001025,-0.000355625
1498766577,3.75e-06,-0.000106875,-0.000350625
1498766577,3.75e-06,-0.000106875,-0.000350625
1498766577,-2.5e-06,-0.000106875,-0.000350625
1498766577,-2.5e-06,-0.000106875,-0.0003625
1498766577,7.5e-06,-0.000106875,-0.000346875
1498766577,0.0,-0.0001025,-0.00035875
1498766578,1.5e-05,-0.0001025,-0.000350625
1498766578,1.5e-05,-0.0001025,-0.000350625
1498766578,0.0,-0.0001,-0.00035875
1498766578,1.875e-05,-0.000110625,-0.00035875
1498766578,1.875e-05,-0.000106875,-0.000346875
1498766578,7.5e-06,-0.00011375,-0.0003625
1498766578,7.5e-06,-0.0001025,-0.000355
1498766578,1.5e-05,-0.000106875,-0.000366875
1498766578,1.5e-05,-0.0001,-0.000355
1498766578,1.875e-05,-0.000106875,-0.000346875
1498766578,1.875e-05,-0.0001,-0.00033875
1498766578,1.0625e-05,-0.0001,-0.000355
1498766578,2.1875e-05,-0.0001025,-0.000355
1498766578,2.1875e-05,-0.000106875,-0.00034375
1498766578,2.1875e-05,-0.000110625,-0.000346875
1498766578,2.1875e-05,-0.000110625,-0.000346875
1498766578,2.875e-05,-9.25e-05,-0.000346875
1498766578,2.1875e-05,-0.000106875,-0.00035875
1498766578,2.875e-05,-0.0001,-0.00033875
1498766578,3.25e-05,-0.000106875,-0.000355
1498766579,3.25e-05,-0.0001,-0.00035875
1498766579,4e-05,-0.000106875,-0.00034375
1498766579,2.875e-05,-0.000106875,-0.000355625
1498766579,3.25e-05,-0.0001025,-0.000355625
1498766579,3.6875e-05,-0.0001025,-0.000346875
1498766579,4e-05,-0.000106875,-0.000350625
1498766579,4e-05,-0.000106875,-0.000350625
1498766579,3.6875e-05,-9.5625e-05,-0.000346875
1498766579,3.6875e-05,-0.0001025,-0.00033875
1498766579,3.25e-05,-0.0001,-0.000346875
1498766579,4e-05,-0.0001025,-0.00034375
1498766579,4e-05,-0.000110625,-0.00033875
1498766579,4e-05,-0.0001025,-0.000346875
1498766579,4.6875e-05,-0.0001,-0.000346875
1498766579,4e-05,-0.000110625,-0.000335625
1498766579,4.6875e-05,-0.0001025,-0.000335625
1498766579,5.5e-05,-0.000106875,-0.00034
1498766579,4.6875e-05,-0.000106875,-0.00034375
1498766579,5.0625e-05,-0.000106875,-0.000335625
1498766579,5.5e-05,-0.0001025,-0.00034375
1498766580,4.25e-05,-0.000110625,-0.000331875
1498766580,5e-05,-0.000110625,-0.0003275
1498766580,5e-05,-0.000106875,-0.000335625
1498766580,5e-05,-0.00011375,-0.0003275
1498766580,5e-05,-0.000110625,-0.0003275
1498766580,5.375e-05,-0.00011375,-0.000335625
1498766580,5.375e-05,-0.0001025,-0.000315625
1498766580,4.5625e-05,-0.000106875,-0.00034375
1498766580,4.25e-05,-0.000106875,-0.000335625
1498766580,5.375e-05,-0.0001025,-0.0003275
1498766580,4.25e-05,-0.000106875,-0.00032375
1498766580,3.875e-05,-0.000106875,-0.00032375
1498766580,4.5625e-05,-0.000110625,-0.000331875
1498766580,3.875e-05,-0.0001,-0.0003275
1498766580,3.875e-05,-0.0001025,-0.000315625
1498766580,3.5625e-05,-0.0001025,-0.000311875
1498766580,3.875e-05,-0.0001025,-0.0003275
1498766580,3.1875e-05,-9.25e-05,-0.00032375
1498766580,2.1875e-05,-0.0001,-0.000311875
1498766580,3.25e-05,-0.0001025,-0.000315
1498766581,2.5625e-05,-9.25e-05,-0.000315
1498766581,2.5625e-05,-0.000106875,-0.0003025
1498766581,2.1875e-05,-9.25e-05,-0.00030375
1498766581,2.1875e-05,-9.6875e-05,-0.0003
1498766581,2.1875e-05,-9.375e-05,-0.0003
1498766581,1.875e-05,-9e-05,-0.000315
1498766581,1.875e-05,-9e-05,-0.000310625
1498766581,7.5e-06,-9e-05,-0.000295625
1498766581,7.5e-06,-9e-05,-0.000295625
1498766581,7.5e-06,-8.5625e-05,-0.0003025
1498766581,0.0,-7.875e-05,-0.0002875
1498766581,-2.5e-06,-7.875e-05,-0.000295625
1498766581,0.0,-8.5625e-05,-0.0003025
1498766581,-1.375e-05,-8.5625e-05,-0.0002875
1498766581,-1.375e-05,-8.25e-05,-0.000295625
1498766581,-1e-05,-8.25e-05,-0.0003
1498766581,-1.75e-05,-8.25e-05,-0.000290625
1498766581,-2.75e-05,-7.5e-05,-0.000295625
1498766581,-3.1875e-05,-8.5625e-05,-0.00028875
1498766581,-3.5625e-05,-7.875e-05,-0.000285
1498766582,-3.5625e-05,-8.5625e-05,-0.00028875
1498766582,-4.25e-05,-8.25e-05,-0.000291875
1498766582,-4.5625e-05,-8.5625e-05,-0.000285
1498766582,-5.375e-05,-7.875e-05,-0.000291875
1498766582,-5.6875e-05,-7.875e-05,-0.000296875
1498766582,-6.0625e-05,-7.5e-05,-0.000285
1498766582,-6.75e-05,-7.875e-05,-0.000285
1498766582,-6.5e-05,-7.875e-05,-0.000280625
1498766582,-7.0625e-05,-8.5625e-05,-0.00028875
1498766582,-7.0625e-05,-8.5625e-05,-0.000296875
1498766582,-6.75e-05,-9e-05,-0.00028875
1498766582,-7.5e-05,-8.5625e-05,-0.0003075
1498766582,-8.1875e-05,-9.6875e-05,-0.000291875
1498766582,-7.75e-05,-9.6875e-05,-0.0003075
1498766582,-8.5e-05,-9.6875e-05,-0.000291875
1498766582,-8.875e-05,-9.375e-05,-0.00030375
1498766582,-8.5e-05,-9.6875e-05,-0.000300625
1498766582,-9.5625e-05,-0.000111875,-0.000315625
1498766582,-9.5625e-05,-0.00010375,-0.0003075
1498766582,-8.5e-05,-0.0001075,-0.000291875
1498766583,-8.875e-05,-0.00011875,-0.00030375
1498766583,-7.75e-05,-0.000121875,-0.000311875
1498766583,-9.1875e-05,-0.0001175,-0.0003075
1498766583,-8.875e-05,-0.000120625,-0.000315625
1498766583,-9.1875e-05,-0.00012875,-0.000316875
1498766583,-8.875e-05,-0.000120625,-0.0003125
1498766583,-7.75e-05,-0.000135625,-0.0003125
1498766583,-8.1875e-05,-0.0001325,-0.000325
1498766583,-7.75e-05,-0.0001425,-0.00032
1498766583,-7.75e-05,-0.000135625,-0.00032
1498766583,-7.75e-05,-0.000135625,-0.00032375
1498766583,-7e-05,-0.0001425,-0.0003275
1498766583,-7.375e-05,-0.000135625,-0.0003275
1498766583,-6.375e-05,-0.0001325,-0.000331875
1498766583,-6.375e-05,-0.0001325,-0.00032375
1498766583,-5.5625e-05,-0.000135625,-0.00032375
1498766583,-6.375e-05,-0.000135625,-0.00032375
1498766583,-6e-05,-0.000135625,-0.00032375
1498766583,-5.5625e-05,-0.00013875,-0.0003275
1498766583,-4.1875e-05,-0.00013875,-0.0003275
1498766584,-5.25e-05,-0.000135625,-0.000335625
1498766584,-4.1875e-05,-0.00015,-0.000335625
1498766584,-4.1875e-05,-0.0001425,-0.00033875
1498766584,-4.25e-05,-0.000135625,-0.000331875
1498766584,-2.75e-05,-0.000135625,-0.000335625
1498766584,-3.5625e-05,-0.000146875,-0.000335625
1498766584,-3.875e-05,-0.0001425,-0.00034
1498766584,-3.875e-05,-0.000146875,-0.00034
1498766584,-2.75e-05,-0.00013875,-0.000335625
1498766584,-1.375e-05,-0.0001425,-0.000331875
1498766584,-2.5e-05,-0.0001325,-0.000346875
1498766584,-1.75e-05,-0.000135625,-0.00034
1498766584,-2.0625e-05,-0.000125,-0.000346875
1498766584,-2.5e-05,-0.00013875,-0.00034375
1498766584,-1.75e-05,-0.000135625,-0.000346875
1498766584,-2.5e-05,-0.00013875,-0.000350625
1498766584,-2.5e-05,-0.000135625,-0.000346875
1498766584,-1.375e-05,-0.0001325,-0.000346875
1498766584,-2.0625e-05,-0.000135625,-0.00034
1498766584,-1.375e-05,-0.0001325,-0.000350625
1498766585,-2.0625e-05,-0.0001325,-0.00034375
1498766585,-2.75e-05,-0.0001325,-0.00034375
1498766585,-1.375e-05,-0.00012875,-0.00035875
1498766585,-1e-05,-0.00012875,-0.00034375
1498766585,-2.5e-05,-0.000125,-0.000355
1498766585,-1.75e-05,-0.000125,-0.000355625
1498766585,-1.375e-05,-0.0001325,-0.0003625
1498766585,-5.625e-06,-0.000120625,-0.00034375
1498766585,-1.75e-05,-0.000125,-0.000346875
1498766585,-1.375e-05,-0.000125,-0.000355625
1498766585,-1.75e-05,-0.00012875,-0.000346875
1498766585,-1e-05,-0.000120625,-0.000355625
1498766585,-1.75e-05,-0.00012875,-0.00035875
1498766585,-1e-05,-0.000131875,-0.0003625
1498766585,-1.375e-05,-0.000135625,-0.000366875
1498766585,-2.5e-05,-0.000125,-0.0003625
1498766585,-2.0625e-05,-0.000125,-0.000355
1498766585,-2.0625e-05,-0.000120625,-0.000366875
1498766585,-1.375e-05,-0.0001325,-0.0003625
1498766585,-1.375e-05,-0.000125,-0.00035875
1498766586,-2.0625e-05,-0.000125,-0.0003575
1498766586,-2.75e-05,-0.000120625,-0.0003575
1498766586,-1.375e-05,-0.000125,-0.00035375
1498766586,-1e-05,-0.000125,-0.000345625
1498766586,-1.375e-05,-0.00012875,-0.00035
1498766586,-1.375e-05,-0.000120625,-0.000365625
1498766586,-1e-05,-0.000125,-0.0003575
1498766586,-1.375e-05,-0.000125,-0.000355
1498766586,-1.75e-05,-0.00011375,-0.000361875
1498766586,-2.0625e-05,-0.000110625,-0.000365625
1498766586,-1.375e-05,-0.000125,-0.00037
1498766586,-1.75e-05,-0.0001175,-0.00037375
1498766586,-1.375e-05,-0.000120625,-0.000355
1498766586,-2.0625e-05,-0.000120625,-0.00037375
1498766586,-5.625e-06,-0.000125,-0.000355
1498766586,-1.375e-05,-0.000120625,-0.000365625
1498766586,-2.0625e-05,-0.00011375,-0.00037
1498766586,-1.375e-05,-0.000120625,-0.00035375
1498766586,-5.625e-06,-0.0001175,-0.00037375
1498766586,-1.75e-05,-0.000125,-0.00037
1498766587,-1.375e-05,-0.00011375,-0.000355
1498766587,-2.0625e-05,-0.000125,-0.000361875
1498766587,-2.0625e-05,-0.0001175,-0.0003575
1498766587,-1.375e-05,-0.000125,-0.000361875
1498766587,-1.75e-05,-0.00011375,-0.000345625
1498766587,-2.0625e-05,-0.000125,-0.000365625
1498766587,-1.375e-05,-0.000120625,-0.0003575
1498766587,-1.75e-05,-0.000125,-0.0003575
1498766587,-2.5e-06,-0.00012875,-0.000365625
1498766587,-2.75e-05,-0.000120625,-0.0003575
1498766587,-1e-05,-0.0001175,-0.0003575
1498766587,-1.75e-05,-0.000125,-0.000361875
1498766587,-2.75e-05,-0.0001175,-0.000361875
1498766587,-2.5e-05,-0.00012875,-0.000365625
1498766587,-2.75e-05,-0.000120625,-0.00037
1498766587,-2.0625e-05,-0.000125,-0.00035
1498766587,-2.0625e-05,-0.00012875,-0.000361875
1498766587,-2.75e-05,-0.000125,-0.000365625
1498766587,-2.0625e-05,-0.000125,-0.000345625
1498766587,-2.0625e-05,-0.000125,-0.00037
1498766588,-2.75e-05,-0.000125,-0.000361875
1498766588,-2.75e-05,-0.000120625,-0.000365625
1498766588,-3.5625e-05,-0.0001175,-0.000355
1498766588,-2.75e-05,-0.000120625,-0.000365625
1498766588,-3.1875e-05,-0.0001175,-0.000361875
1498766588,-3.1875e-05,-0.000120625,-0.000361875
1498766588,-2.0625e-05,-0.0001175,-0.000361875
1498766588,-2.5e-05,-0.000120625,-0.00035
1498766588,-3.1875e-05,-0.0001175,-0.0003575
1498766588,-2.5e-05,-0.000125,-0.0003575
1498766588,-1.375e-05,-0.000125,-0.0003575
1498766588,-1.75e-05,-0.000125,-0.0003575
1498766588,-1e-05,-0.0001175,-0.000365625
1498766588,-1.75e-05,-0.000120625,-0.00035
1498766588,-2.75e-05,-0.000120625,-0.000361875
1498766588,-2.75e-05,-0.000125,-0.000361875
1498766588,-2.0625e-05,-0.00011375,-0.000365625
1498766588,-1.75e-05,-0.000120625,-0.000365625
1498766588,-2.5e-05,-0.000120625,-0.000365625
1498766588,-2.0625e-05,-0.000125,-0.0003575
1498766589,-2.0625e-05,-0.000125,-0.0003575
1498766589,-1.375e-05,-0.00011375,-0.00035375
1498766589,-1.375e-05,-0.00011375,-0.00035375
1498766589,-2.0625e-05,-0.0001175,-0.000361875
1498766589,-2.75e-05,-0.000125,-0.00035375
1498766589,-2.75e-05,-0.000125,-0.00035375
1498766589,-2.75e-05,-0.000120625,-0.000365625
1498766589,-2.5e-05,-0.000125,-0.0003575
1498766589,-2.5e-05,-0.000125,-0.0003575
1498766589,-2.75e-05,-0.0001175,-0.0003575
1498766589,-2.5e-05,-0.000120625,-0.000355
1498766589,-2.5e-05,-0.000125,-0.000355
1498766589,-2.0625e-05,-0.00012875,-0.000345625
1498766589,-2.75e-05,-0.00011375,-0.000365625
1498766589,-2.0625e-05,-0.000120625,-0.00035
1498766589,-2.75e-05,-0.000120625,-0.00035
1498766589,-2.75e-05,-0.000120625,-0.00035
1498766589,-2.5e-05,-0.000120625,-0.000361875
1498766589,-1.375e-05,-0.00011375,-0.000345625
1498766589,-1.375e-05,-0.000120625,-0.000361875
1498766590,-1.75e-05,-0.000120625,-0.0003575
1498766590,-2.5e-05,-0.00012875,-0.000361875
1498766590,-1.75e-05,-0.0001325,-0.00035375
1498766590,-1.75e-05,-0.000125,-0.00037
1498766590,-1.375e-05,-0.0001175,-0.00037
1498766590,-1e-05,-0.000120625,-0.00037375
1498766590,-2.0625e-05,-0.000120625,-0.000361875
1498766590,-2.0625e-05,-0.000120625,-0.000361875
1498766590,-1.75e-05,-0.00012875,-0.0003575
1498766590,-5.625e-06,-0.0001175,-0.00035
1498766590,-1.75e-05,-0.000120625,-0.00037
1498766590,-1.375e-05,-0.000125,-0.00037
1498766590,-1.75e-05,-0.00012875,-0.0003575
1498766590,-1.75e-05,-0.00012875,-0.0003575
1498766590,-1.75e-05,-0.000110625,-0.00037375
1498766590,-1.375e-05,-0.00012875,-0.000365625
1498766590,-1.75e-05,-0.00012875,-0.0003575
1498766590,-2.0625e-05,-0.000120625,-0.000365625
1498766590,-1.375e-05,-0.000125,-0.000345625
1498766590,-2.0625e-05,-0.00011375,-0.0003575
1498766591,-2.5e-05,-0.00012875,-0.0003575
1498766591,-2.0625e-05,-0.000125,-0.00037
1498766591,-2.5e-05,-0.00012875,-0.000365625
1498766591,-1.75e-05,-0.0001175,-0.000365625
1498766591,-1.75e-05,-0.0001175,-0.000365625
1498766591,-2.5e-05,-0.000120625,-0.00035
